            _                     _ 
  __ _   __| | ___         _   _ (_)
 / _` | / _` |/ __| _____ | | | || |
| (_| || (_| |\__ \|_____|| |_| || |
 \__,_| \__,_||___/        \__,_||_|
                                    
