<?xml version="1.0" encoding="utf-8"?>
<!-- Generator: Adobe Illustrator 26.0.2, SVG Export Plug-In . SVG Version: 6.00 Build 0)  -->
<svg version="1.1" xmlns="http://www.w3.org/2000/svg" xmlns:xlink="http://www.w3.org/1999/xlink" x="0px" y="0px"
	 viewBox="0 0 62 62" enable-background="new 0 0 62 62" xml:space="preserve">
<g id="background">
	<rect fill="none" width="62" height="62"/>
</g>
<g id="Icon">
	<path fill="#1B1534" d="M39,34.4v-1.24c0.61,0.15,1.55,0.34,2.5,0.34c1.38,0,2.5-1.12,2.5-2.5s-1.12-2.5-2.5-2.5
		c-0.87,0-1.25,0.31-1.55,0.56c-0.23,0.19-0.43,0.35-0.95,0.41v-1.51c0-0.74-0.32-1.43-0.88-1.9c-0.32-0.27-0.71-0.45-1.12-0.53
		v-1.18c1.16-0.24,2-1.26,2-2.45v-1.24c0.61,0.15,1.55,0.34,2.5,0.34c1.38,0,2.5-1.12,2.5-2.5S42.88,16,41.5,16
		c-0.87,0-1.25,0.31-1.55,0.56C39.66,16.79,39.42,17,38.5,17H38v0.5V18v3.9c0,0.72-0.51,1.34-1.22,1.47l-0.47,0.09
		C34.98,23.73,33.6,24,31,24s-3.98-0.27-5.31-0.53l-0.47-0.09C24.51,23.24,24,22.62,24,21.9v-3v-0.03V15.5
		c0-0.44,0.19-0.86,0.53-1.14c0.34-0.29,0.79-0.41,1.23-0.34l0.51,0.09c1.27,0.22,2.46,0.43,4.73,0.43s3.46-0.21,4.73-0.43
		l0.51-0.09c0.79-0.13,1.51,0.34,1.71,1.1l0.97-0.25c-0.33-1.27-1.55-2.06-2.84-1.84l-0.52,0.09c-1.28,0.22-2.38,0.41-4.56,0.41
		s-3.28-0.19-4.56-0.41l-0.52-0.09c-0.73-0.12-1.48,0.08-2.04,0.56C23.32,14.07,23,14.76,23,15.5v1.47
		c-0.52-0.06-0.73-0.23-0.95-0.41C21.75,16.31,21.37,16,20.5,16c-1.38,0-2.5,1.12-2.5,2.5s1.12,2.5,2.5,2.5
		c0.95,0,1.89-0.19,2.5-0.34v1.24c0,1.19,0.84,2.21,2,2.45v1.18c-0.41,0.08-0.79,0.26-1.12,0.53c-0.56,0.48-0.88,1.17-0.88,1.9v4.16
		c-0.51,0.14-1.51,0.37-2.5,0.37c-0.83,0-1.5-0.67-1.5-1.5s0.67-1.5,1.5-1.5c0.15,0,0.28,0.01,0.39,0.04l0.22-0.98
		c-0.19-0.04-0.39-0.06-0.61-0.06c-1.38,0-2.5,1.12-2.5,2.5s1.12,2.5,2.5,2.5c0.95,0,1.89-0.19,2.5-0.34v1.24
		c0,1.19,0.84,2.21,2,2.45v1.18c-0.41,0.08-0.79,0.26-1.12,0.53c-0.56,0.47-0.88,1.17-0.88,1.9v1.51c-0.52-0.06-0.73-0.23-0.95-0.41
		C21.75,41.31,21.37,41,20.5,41c-1.38,0-2.5,1.12-2.5,2.5s1.12,2.5,2.5,2.5c0.95,0,1.89-0.19,2.5-0.34v1.24
		c0,1.2,0.85,2.23,2.03,2.46l0.19-0.98C24.51,48.24,24,47.62,24,46.9v-6.44c0-0.44,0.19-0.86,0.53-1.14
		c0.34-0.29,0.79-0.41,1.23-0.34l0.51,0.09c1.27,0.22,2.46,0.43,4.73,0.43s3.46-0.21,4.73-0.43l0.51-0.09
		c0.44-0.07,0.89,0.05,1.23,0.34c0.34,0.28,0.53,0.7,0.53,1.14v6.44c0,0.72-0.51,1.34-1.22,1.47l-0.47,0.09
		C34.98,48.73,33.6,49,31,49c-1.49,0-2.7-0.09-3.92-0.28l-0.16,0.99C28.19,49.91,29.45,50,31,50c2.69,0,4.12-0.28,5.5-0.55
		l0.47-0.09C38.15,49.13,39,48.1,39,46.9v-1.24c0.61,0.15,1.55,0.34,2.5,0.34c1.38,0,2.5-1.12,2.5-2.5S42.88,41,41.5,41
		c-0.87,0-1.25,0.31-1.55,0.56c-0.23,0.19-0.43,0.35-0.95,0.41v-1.51c0-0.74-0.32-1.43-0.88-1.9c-0.32-0.27-0.71-0.45-1.12-0.53
		v-1.18C38.16,36.61,39,35.59,39,34.4z M40.59,29.83c0.25-0.21,0.4-0.33,0.91-0.33c0.83,0,1.5,0.67,1.5,1.5s-0.67,1.5-1.5,1.5
		c-0.99,0-1.99-0.23-2.5-0.37v-1.65C39.82,30.4,40.21,30.14,40.59,29.83z M40.59,17.33c0.25-0.21,0.4-0.33,0.91-0.33
		c0.83,0,1.5,0.67,1.5,1.5S42.33,20,41.5,20c-0.99,0-1.99-0.23-2.5-0.37v-1.65C39.82,17.9,40.21,17.64,40.59,17.33z M20.5,20
		c-0.83,0-1.5-0.67-1.5-1.5s0.67-1.5,1.5-1.5c0.51,0,0.66,0.12,0.91,0.33c0.38,0.31,0.77,0.57,1.59,0.65v0.9v0.03v0.73
		C22.49,19.77,21.49,20,20.5,20z M20.5,45c-0.83,0-1.5-0.67-1.5-1.5s0.67-1.5,1.5-1.5c0.51,0,0.66,0.12,0.91,0.33
		c0.38,0.31,0.77,0.57,1.59,0.65v1.65C22.49,44.77,21.49,45,20.5,45z M40.59,42.33c0.25-0.21,0.4-0.33,0.91-0.33
		c0.83,0,1.5,0.67,1.5,1.5S42.33,45,41.5,45c-0.99,0-1.99-0.23-2.5-0.37v-1.65C39.82,42.9,40.21,42.64,40.59,42.33z M36,24.55v0.97
		l-0.44,0.08C34.28,25.81,33.18,26,31,26s-3.28-0.19-4.56-0.41L26,25.51v-0.97c1.24,0.24,2.63,0.45,5,0.45S34.76,24.78,36,24.55z
		 M24,34.4v-6.44c0-0.44,0.19-0.86,0.53-1.14c0.27-0.23,0.62-0.36,0.98-0.36c0.08,0,0.17,0.01,0.25,0.02l0.51,0.09
		C27.54,26.79,28.73,27,31,27s3.46-0.21,4.73-0.42l0.51-0.09c0.44-0.07,0.89,0.05,1.23,0.34c0.34,0.28,0.53,0.7,0.53,1.14v6.44
		c0,0.72-0.51,1.34-1.22,1.47l-0.47,0.09C34.98,36.23,33.6,36.5,31,36.5s-3.98-0.27-5.31-0.53l-0.47-0.09
		C24.51,35.74,24,35.12,24,34.4z M35.56,38.09c-1.28,0.22-2.38,0.41-4.56,0.41s-3.28-0.19-4.56-0.41L26,38.01v-0.97
		c1.24,0.24,2.63,0.45,5,0.45s3.76-0.22,5-0.45v0.97L35.56,38.09z M39,34.4v-1.24c0.61,0.15,1.55,0.34,2.5,0.34
		c1.38,0,2.5-1.12,2.5-2.5s-1.12-2.5-2.5-2.5c-0.87,0-1.25,0.31-1.55,0.56c-0.23,0.19-0.43,0.35-0.95,0.41v-1.51
		c0-0.74-0.32-1.43-0.88-1.9c-0.32-0.27-0.71-0.45-1.12-0.53v-1.18c1.16-0.24,2-1.26,2-2.45v-1.24c0.61,0.15,1.55,0.34,2.5,0.34
		c1.38,0,2.5-1.12,2.5-2.5S42.88,16,41.5,16c-0.87,0-1.25,0.31-1.55,0.56C39.66,16.79,39.42,17,38.5,17H38v0.5V18v3.9
		c0,0.72-0.51,1.34-1.22,1.47l-0.47,0.09C34.98,23.73,33.6,24,31,24s-3.98-0.27-5.31-0.53l-0.47-0.09C24.51,23.24,24,22.62,24,21.9
		v-3v-0.03V15.5c0-0.44,0.19-0.86,0.53-1.14c0.34-0.29,0.79-0.41,1.23-0.34l0.51,0.09c1.27,0.22,2.46,0.43,4.73,0.43
		s3.46-0.21,4.73-0.43l0.51-0.09c0.79-0.13,1.51,0.34,1.71,1.1l0.97-0.25c-0.33-1.27-1.55-2.06-2.84-1.84l-0.52,0.09
		c-1.28,0.22-2.38,0.41-4.56,0.41s-3.28-0.19-4.56-0.41l-0.52-0.09c-0.73-0.12-1.48,0.08-2.04,0.56C23.32,14.07,23,14.76,23,15.5
		v1.47c-0.52-0.06-0.73-0.23-0.95-0.41C21.75,16.31,21.37,16,20.5,16c-1.38,0-2.5,1.12-2.5,2.5s1.12,2.5,2.5,2.5
		c0.95,0,1.89-0.19,2.5-0.34v1.24c0,1.19,0.84,2.21,2,2.45v1.18c-0.41,0.08-0.79,0.26-1.12,0.53c-0.56,0.48-0.88,1.17-0.88,1.9v4.16
		c-0.51,0.14-1.51,0.37-2.5,0.37c-0.83,0-1.5-0.67-1.5-1.5s0.67-1.5,1.5-1.5c0.15,0,0.28,0.01,0.39,0.04l0.22-0.98
		c-0.19-0.04-0.39-0.06-0.61-0.06c-1.38,0-2.5,1.12-2.5,2.5s1.12,2.5,2.5,2.5c0.95,0,1.89-0.19,2.5-0.34v1.24
		c0,1.19,0.84,2.21,2,2.45v1.18c-0.41,0.08-0.79,0.26-1.12,0.53c-0.56,0.47-0.88,1.17-0.88,1.9v1.51c-0.52-0.06-0.73-0.23-0.95-0.41
		C21.75,41.31,21.37,41,20.5,41c-1.38,0-2.5,1.12-2.5,2.5s1.12,2.5,2.5,2.5c0.95,0,1.89-0.19,2.5-0.34v1.24
		c0,1.2,0.85,2.23,2.03,2.46l0.19-0.98C24.51,48.24,24,47.62,24,46.9v-6.44c0-0.44,0.19-0.86,0.53-1.14
		c0.34-0.29,0.79-0.41,1.23-0.34l0.51,0.09c1.27,0.22,2.46,0.43,4.73,0.43s3.46-0.21,4.73-0.43l0.51-0.09
		c0.44-0.07,0.89,0.05,1.23,0.34c0.34,0.28,0.53,0.7,0.53,1.14v6.44c0,0.72-0.51,1.34-1.22,1.47l-0.47,0.09
		C34.98,48.73,33.6,49,31,49c-1.49,0-2.7-0.09-3.92-0.28l-0.16,0.99C28.19,49.91,29.45,50,31,50c2.69,0,4.12-0.28,5.5-0.55
		l0.47-0.09C38.15,49.13,39,48.1,39,46.9v-1.24c0.61,0.15,1.55,0.34,2.5,0.34c1.38,0,2.5-1.12,2.5-2.5S42.88,41,41.5,41
		c-0.87,0-1.25,0.31-1.55,0.56c-0.23,0.19-0.43,0.35-0.95,0.41v-1.51c0-0.74-0.32-1.43-0.88-1.9c-0.32-0.27-0.71-0.45-1.12-0.53
		v-1.18C38.16,36.61,39,35.59,39,34.4z M40.59,29.83c0.25-0.21,0.4-0.33,0.91-0.33c0.83,0,1.5,0.67,1.5,1.5s-0.67,1.5-1.5,1.5
		c-0.99,0-1.99-0.23-2.5-0.37v-1.65C39.82,30.4,40.21,30.14,40.59,29.83z M40.59,17.33c0.25-0.21,0.4-0.33,0.91-0.33
		c0.83,0,1.5,0.67,1.5,1.5S42.33,20,41.5,20c-0.99,0-1.99-0.23-2.5-0.37v-1.65C39.82,17.9,40.21,17.64,40.59,17.33z M20.5,20
		c-0.83,0-1.5-0.67-1.5-1.5s0.67-1.5,1.5-1.5c0.51,0,0.66,0.12,0.91,0.33c0.38,0.31,0.77,0.57,1.59,0.65v0.9v0.03v0.73
		C22.49,19.77,21.49,20,20.5,20z M20.5,45c-0.83,0-1.5-0.67-1.5-1.5s0.67-1.5,1.5-1.5c0.51,0,0.66,0.12,0.91,0.33
		c0.38,0.31,0.77,0.57,1.59,0.65v1.65C22.49,44.77,21.49,45,20.5,45z M40.59,42.33c0.25-0.21,0.4-0.33,0.91-0.33
		c0.83,0,1.5,0.67,1.5,1.5S42.33,45,41.5,45c-0.99,0-1.99-0.23-2.5-0.37v-1.65C39.82,42.9,40.21,42.64,40.59,42.33z M36,24.55v0.97
		l-0.44,0.08C34.28,25.81,33.18,26,31,26s-3.28-0.19-4.56-0.41L26,25.51v-0.97c1.24,0.24,2.63,0.45,5,0.45S34.76,24.78,36,24.55z
		 M24,34.4v-6.44c0-0.44,0.19-0.86,0.53-1.14c0.27-0.23,0.62-0.36,0.98-0.36c0.08,0,0.17,0.01,0.25,0.02l0.51,0.09
		C27.54,26.79,28.73,27,31,27s3.46-0.21,4.73-0.42l0.51-0.09c0.44-0.07,0.89,0.05,1.23,0.34c0.34,0.28,0.53,0.7,0.53,1.14v6.44
		c0,0.72-0.51,1.34-1.22,1.47l-0.47,0.09C34.98,36.23,33.6,36.5,31,36.5s-3.98-0.27-5.31-0.53l-0.47-0.09
		C24.51,35.74,24,35.12,24,34.4z M35.56,38.09c-1.28,0.22-2.38,0.41-4.56,0.41s-3.28-0.19-4.56-0.41L26,38.01v-0.97
		c1.24,0.24,2.63,0.45,5,0.45s3.76-0.22,5-0.45v0.97L35.56,38.09z"/>
</g>
</svg>
