<?xml version="1.0" encoding="utf-8"?>
<!-- Generator: Adobe Illustrator 25.1.0, SVG Export Plug-In . SVG Version: 6.00 Build 0)  -->
<svg version="1.1" id="Icon" xmlns="http://www.w3.org/2000/svg" xmlns:xlink="http://www.w3.org/1999/xlink" x="0px" y="0px"
	 viewBox="0 0 62 62" enable-background="new 0 0 62 62" xml:space="preserve">
<rect fill="none" width="62" height="62"/>
<path fill="#1B1534" d="M17.70312,48.04296l-0.40479,0.91455c-0.17529-0.07715-4.28857-1.9541-4.29834-7.45654
	c-0.00488-2.74268,0.91602-4.51611,1.80615-6.23145c0.87354-1.68213,1.69824-3.271,1.69385-5.76855
	c-0.00879-4.83301-3.55225-6.47656-3.70312-6.54395l0.40479-0.91455c0.17529,0.07715,4.28857,1.9541,4.29834,7.45654
	c0.00488,2.74268-0.91602,4.51611-1.80615,6.23145c-0.87354,1.68213-1.69824,3.271-1.69385,5.76855
	C14.00879,46.33202,17.55225,47.97558,17.70312,48.04296z M23,41.50097l1-0.00195c-0.00439-2.49756,0.82031-4.08643,1.69385-5.76855
	c0.89014-1.71533,1.81104-3.48877,1.80615-6.23145c-0.00977-5.50244-4.12305-7.37939-4.29834-7.45654l-0.40479,0.91455
	c0.15088,0.06738,3.69434,1.71094,3.70312,6.54395c0.00439,2.49756-0.82031,4.08643-1.69385,5.76855
	C23.91602,36.98486,22.99512,38.75829,23,41.50097z M19,41.49902c-0.00439-2.49756,0.82031-4.08643,1.69385-5.76855
	c0.89014-1.71533,1.81104-3.48877,1.80615-6.23145l-1,0.00195c0.00439,2.49756-0.82031,4.08643-1.69385,5.76855
	C18.91602,36.98486,17.99512,38.75829,18,41.50097c0.00977,5.50244,4.12305,7.37939,4.29834,7.45654l0.40479-0.91455
	C22.55225,47.97558,19.00879,46.33202,19,41.49902z M47.69385,29.49999l0.43018,5.53516l-1.4873-0.54138l-1.48877,5.349
	l-1.2124-1.01727l-3.22852,4.51678l-0.79126-1.37054L35.3374,45.1123l-0.27478-1.55859l-5.37708,1.38477l1.61035-9.13135
	l0.4917,0.08594C36.11816,36.65136,40,33.25927,40,28.99999v-0.5h7.72363l-0.85645-1.88391l0.94238-0.34314l1.4668,3.22705H47.69385
	z M34.88843,42.56573l-0.9906-5.61877c-0.58093,0.06506-1.17859,0.07111-1.78796,0.00226L30.94043,43.583L34.88843,42.56573z
	 M39.41455,41.10339l-2.8584-4.95099c-0.52893,0.26526-1.08911,0.47302-1.6748,0.61566l1.1709,6.64111L39.41455,41.10339z
	 M43.16748,38.18096l-4.37964-3.67499c-0.41052,0.43146-0.86938,0.8147-1.36548,1.14667l3.37451,5.84491L43.16748,38.18096z
	 M45.69458,34.15081l-5.37415-1.95612c-0.24146,0.54895-0.54126,1.06531-0.89417,1.54224l5.1748,4.34119L45.69458,34.15081z
	 M47.00684,33.56445l-0.31592-4.06445h-5.70654c-0.0376,0.60699-0.14929,1.19366-0.31641,1.75732L47.00684,33.56445z M33,21.99999
	c-1.22754,0-2.43652,0.32373-3.49658,0.93652l-0.43311,0.25l-3.80566-6.59131l5.40625-3.70752l0.27478,1.55847l5.37659-1.38464
	l-0.2749,1.55853l5.52588,0.53766l-0.79114,1.3703l5.00842,2.39532l-1.73071,1.45209l3.71069,3.78326l-8.01758,2.92188
	l-0.1709-0.47021C38.58008,23.85253,35.93506,21.99999,33,21.99999z M43.2915,21.02007l-3.86902,3.24634
	c0.35278,0.47638,0.67102,0.98199,0.91345,1.53729l5.63379-2.05322L43.2915,21.02007z M40.28052,17.39684l-2.8562,4.94708
	c0.49561,0.32947,0.94263,0.7254,1.35522,1.15723l5.17896-4.3454L40.28052,17.39684z M35.87317,15.60766l-0.99451,5.63818
	c0.58276,0.14221,1.14502,0.33966,1.67578,0.60431l3.37622-5.84772L35.87317,15.60766z M31.125,21.22314l-1.16895-6.63232
	l-3.3623,2.30615l2.85059,4.93701C29.98047,21.56738,30.54443,21.36279,31.125,21.22314z M32.10986,21.0498
	c0.29492-0.0332,0.5918-0.0498,0.89014-0.0498c0.30261,0,0.59912,0.03302,0.89514,0.06671l1.17224-6.64972l-3.94751,1.01715
	L32.10986,21.0498z M21.28857,27.61034l0.97559-0.2207c-0.88037-3.89209-3.93164-5.28906-4.06104-5.34668l-0.40771,0.91309
	C17.90674,23.00634,20.52295,24.22314,21.28857,27.61034z M24.21289,43.38964l-0.97559,0.2207
	c0.87988,3.89111,3.93018,5.28906,4.05957,5.34668l0.40771-0.91309C27.59375,47.99364,24.97852,46.77587,24.21289,43.38964z"/>
</svg>
