<?xml version="1.0" encoding="utf-8"?>
<!-- Generator: Adobe Illustrator 25.1.0, SVG Export Plug-In . SVG Version: 6.00 Build 0)  -->
<svg version="1.1" id="Icon" xmlns="http://www.w3.org/2000/svg" xmlns:xlink="http://www.w3.org/1999/xlink" x="0px" y="0px"
	 viewBox="0 0 62 62" enable-background="new 0 0 62 62" xml:space="preserve">
<rect fill="none" width="62" height="62"/>
<path fill="#1B1534" d="M47.78662,26.27832l-5.40771-9.41333C42.4502,16.58667,42.5,16.30029,42.5,16c0-1.92969-1.57031-3.5-3.5-3.5
	s-3.5,1.57031-3.5,3.5c0,1.13037,0.54785,2.12683,1.38208,2.76721l-6.91138,4.44312
	c-0.09399-1.60413-0.92773-3.01282-2.18579-3.85999l6.21753-2.66479l-0.39355-0.91895l-7.03027,3.01318
	C26.07959,18.61206,25.55493,18.5,25,18.5c-2.75684,0-5,2.24316-5,5c0,0.76343,0.18555,1.47937,0.49316,2.12732L19.50732,37.8866
	C17.37866,39.53418,16,42.1062,16,45v2h-3v1h24v-1H17v-2c0-4.41113,3.58887-8,8-8s8,3.58887,8,8h1
	c0-2.8938-1.37866-5.46582-3.50732-7.1134l-0.98584-12.25928c0.17773-0.37439,0.31787-0.76794,0.39795-1.18604l7.99072-5.13708
	C38.24463,19.42151,38.61182,19.5,39,19.5c1.1897,0,2.2395-0.59937,2.87231-1.50928l4.88013,8.49463l-1.72705,1.0791
	l-4.6377-6.84473l-0.82812,0.56055l4.82227,7.11658v3.05432l2.04004,1.06689l0.46387-0.88574l-1.50391-0.78662v-2.32507
	l2.06592-1.29114L49.5,28.30273V30h1v-2.30273L47.78662,26.27832z M25,19.5c2.20557,0,4,1.79443,4,4s-1.79443,4-4,4s-4-1.79443-4-4
	S22.79443,19.5,25,19.5z M25,36c-1.61157,0-3.12207,0.4314-4.43213,1.17651l0.823-10.23401C22.302,27.89746,23.5791,28.5,25,28.5
	s2.698-0.60254,3.60913-1.5575l0.823,10.23401C28.12207,36.4314,26.61157,36,25,36z M39,18.5c-1.37842,0-2.5-1.12158-2.5-2.5
	s1.12158-2.5,2.5-2.5s2.5,1.12158,2.5,2.5S40.37842,18.5,39,18.5z"/>
</svg>
