<?xml version="1.0" encoding="utf-8"?>
<!-- Generator: Adobe Illustrator 25.1.0, SVG Export Plug-In . SVG Version: 6.00 Build 0)  -->
<svg version="1.1" id="Icon" xmlns="http://www.w3.org/2000/svg" xmlns:xlink="http://www.w3.org/1999/xlink" x="0px" y="0px"
	 viewBox="0 0 62 62" enable-background="new 0 0 62 62" xml:space="preserve">
<rect fill="none" width="62" height="62"/>
<path fill="#1B1534" d="M18,35c-2.75684,0-5,2.24316-5,5s2.24316,5,5,5s5-2.24316,5-5S20.75684,35,18,35z M18,44
	c-2.20557,0-4-1.79443-4-4s1.79443-4,4-4s4,1.79443,4,4S20.20557,44,18,44z M42,49c-3.30859,0-6-2.69141-6-6s2.69141-6,6-6
	s6,2.69141,6,6h1c0-3.85986-3.14014-7-7-7c-0.45557,0-0.8999,0.04712-1.3313,0.13062L39.15259,30.5h2.91846
	C42.29456,31.36023,43.07056,32,44,32c1.10303,0,2-0.89697,2-2s-0.89697-2-2-2c-0.92944,0-1.70544,0.63977-1.92896,1.5H38.8833
	l-1.56689-5.81934l-0.96582,0.25977L37.84753,29.5h-4.88049c-0.15405-1.21631-0.85962-2.25903-1.8551-2.88269l2.26648-4.91052
	C33.88965,21.88367,34.42932,22,35,22c2.75684,0,5-2.24316,5-5s-2.24316-5-5-5s-5,2.24316-5,5
	c0,1.82996,0.99915,3.41675,2.46997,4.28809l-2.26904,4.9165C29.81934,26.08325,29.42114,26,29,26
	c-1.43652,0-2.68823,0.76794-3.39368,1.9082l-4.71716-2.14404C20.95422,25.51868,21,25.26562,21,25c0-1.6543-1.3457-3-3-3
	s-3,1.3457-3,3s1.3457,3,3,3c1.03271,0,1.94507-0.52466,2.48486-1.32129l4.71289,2.14209C25.08093,29.19604,25,29.58691,25,30
	c0,0.85474,0.27466,1.64355,0.73315,2.29419l-2.9646,2.69458l0.67285,0.74023l2.97327-2.70239C27.11401,33.62488,28.00977,34,29,34
	c0.92249,0,1.76233-0.32666,2.4397-0.85327l5.27612,5.27612C35.65015,39.65161,35,41.24976,35,43c0,3.85986,3.14014,7,7,7
	c3.0835,0,5.77002-1.97656,6.68555-4.91846l-0.95508-0.29688C46.9458,47.30615,44.64307,49,42,49z M44,29c0.55127,0,1,0.44873,1,1
	s-0.44873,1-1,1s-1-0.44873-1-1S43.44873,29,44,29z M31,17c0-2.20557,1.79443-4,4-4s4,1.79443,4,4s-1.79443,4-4,4S31,19.20557,31,17
	z M18,27c-1.10303,0-2-0.89697-2-2s0.89697-2,2-2s2,0.89697,2,2S19.10303,27,18,27z M29,33c-1.6543,0-3-1.3457-3-3s1.3457-3,3-3
	s3,1.3457,3,3S30.6543,33,29,33z M32.14673,32.4397c0.42908-0.552,0.71436-1.21509,0.80933-1.9397h5.16064l1.58728,5.89478
	c-0.84595,0.29492-1.61755,0.74561-2.28113,1.32104L32.14673,32.4397z"/>
</svg>
