<?xml version="1.0" encoding="utf-8"?>
<!-- Generator: Adobe Illustrator 25.1.0, SVG Export Plug-In . SVG Version: 6.00 Build 0)  -->
<svg version="1.1" id="Icon" xmlns="http://www.w3.org/2000/svg" xmlns:xlink="http://www.w3.org/1999/xlink" x="0px" y="0px"
	 viewBox="0 0 62 62" enable-background="new 0 0 62 62" xml:space="preserve">
<rect fill="none" width="62" height="62"/>
<path fill="#1B1534" d="M47.8623,29.13512l1.24316-0.17468l-2.52002-4.75122l-0.85034,0.53125l1.8186,3.42798l-10.68604,1.50195
	l0.06982,0.49512c0.37158,2.63672-1.06641,5.2334-3.49707,6.31592c-1.46387,0.65137-3.09375,0.69482-4.59082,0.12012
	c-1.49609-0.57471-2.6792-1.69727-3.33105-3.16162c-0.65186-1.46387-0.69434-3.09424-0.12012-4.59033
	s1.69678-2.6792,3.16113-3.33105c0.78027-0.34717,1.60303-0.51318,2.41748-0.51318c2.01953,0,3.98389,1.02002,5.10498,2.81836
	l0.26465,0.4248l10.36426-6.47607l-5.81396-4.55115l0.70264-1.04163l-7.1626-1.7926l0.21826-1.23718l-7.27246,1.27515
	l-0.30371-1.21802l-6.125,4.12207l-0.77295-0.98926l-3.91895,6.25757l-1.10889-0.5896l-1.03467,7.31067l-1.25293-0.08752
	l2.02832,7.09888l-1.18018,0.42944l4.74072,5.6604l-0.90332,0.87231l6.63257,3.24341l-0.47046,1.16431l7.37891,0.26465
	l0.04395,1.25537l6.8479-2.75891l0.55054,1.12854l5.13403-5.30603l0.96216,0.8075l2.53198-6.93604l1.20728,0.34619L47.8623,29.13512
	z M46.86914,29.27464l0.40527,5.87183l-9.44458-2.70801c0.13257-0.62207,0.19385-1.26355,0.14966-1.91455L46.86914,29.27464z
	 M44.9707,21.68065L44.9707,21.68065l-8.32031,5.19873c-0.38501-0.52869-0.8501-0.97095-1.34961-1.36121l5.03589-7.46594
	L44.9707,21.68065z M39.97266,16.8037l-5.50244,8.1571c-0.55835-0.31921-1.14795-0.57361-1.76904-0.73071l1.56177-8.85583
	L39.97266,16.8037z M33.42285,14.38133l-1.70483,9.66882c-0.63354-0.0675-1.27637-0.02869-1.91504,0.08057l-2.17749-8.73254
	L33.42285,14.38133z M26.4541,14.83299l2.37793,9.53894c-0.22729,0.0741-0.45703,0.13452-0.6792,0.23352
	c-0.37256,0.16577-0.72241,0.36621-1.05469,0.58838l-5.52661-7.07434L26.4541,14.83299z M20.271,18.08006l6.0376,7.72717
	c-0.47803,0.43079-0.89673,0.92346-1.23975,1.4729l-7.92139-4.21204L20.271,18.08006z M15.94336,23.56053l8.66406,4.60693
	c-0.04761,0.10791-0.1001,0.21289-0.14258,0.32373c-0.19092,0.49756-0.31665,1.00818-0.39087,1.52295l-8.95532-0.62573
	L15.94336,23.56053z M14.21924,30.32762l9.7832,0.68396c0.00098,0.64148,0.09302,1.2804,0.27197,1.90442l-8.43799,3.0708
	L14.21924,30.32762z M15.39648,37.21141l9.21387-3.35376c0.26733,0.59717,0.61328,1.14233,1.021,1.63135l-6.45581,6.2345
	L15.39648,37.21141z M19.27197,43.02049l7.05518-6.81287c0.47607,0.42712,1.00952,0.79102,1.59473,1.07654l-3.3623,8.32153
	L19.27197,43.02049z M25.17529,46.75145l3.67529-9.09692c0.62012,0.20105,1.25537,0.31348,1.89331,0.3374l0.31348,8.97083
	L25.17529,46.75145z M32.08545,47.75877l-0.34229-9.7959c0.63354-0.06836,1.2583-0.23218,1.86353-0.47607l3.93774,8.07275
	L32.08545,47.75877z M38.80811,45.86864l-4.30737-8.82935c0.56274-0.32739,1.06543-0.72681,1.50708-1.18506l6.89307,5.78467
	L38.80811,45.86864z M44.18066,41.40721l-7.53174-6.32007c0.375-0.52075,0.68018-1.08569,0.90186-1.68872l8.64844,2.47998
	L44.18066,41.40721z"/>
</svg>
