<?xml version="1.0" encoding="utf-8"?>
<!-- Generator: Adobe Illustrator 26.0.1, SVG Export Plug-In . SVG Version: 6.00 Build 0)  -->
<svg version="1.1" xmlns="http://www.w3.org/2000/svg" xmlns:xlink="http://www.w3.org/1999/xlink" x="0px" y="0px"
	 viewBox="0 0 62 62" enable-background="new 0 0 62 62" xml:space="preserve">
<g id="Hintergrund">
	<rect fill="none" width="62" height="62"/>
</g>
<g id="Icon">
	<path fill="#1B1534" d="M46,47V18H23v28h-2V16h22v-1h-3v-3H17v32h3v3h3v3h23v-1H24V19h21v28H46z M18,43V13h21v2H20v28H18z
		 M40.77,35.27c0.47-0.47,0.73-1.1,0.73-1.77s-0.26-1.29-0.73-1.77l0.71-0.71c0.66,0.66,1.03,1.54,1.03,2.47s-0.36,1.81-1.03,2.47
		L40.77,35.27z M32.5,38v-1.73l3.86,1.69L39,38l-0.01-6h-1L38,37h-1.34l-4.16-1.83v-3.39L36.61,30h2.38v-1H36.5l-4.61,2H29
		c-1.38,0-2.5,1.12-2.5,2.5S27.62,36,29,36h2.5v2H32.5z M29,35c-0.83,0-1.5-0.67-1.5-1.5S28.17,32,29,32h2.5v3.03L29,35z"/>
</g>
</svg>
