<?xml version="1.0" encoding="utf-8"?>
<!-- Generator: Adobe Illustrator 25.1.0, SVG Export Plug-In . SVG Version: 6.00 Build 0)  -->
<svg version="1.1" id="Icon" xmlns="http://www.w3.org/2000/svg" xmlns:xlink="http://www.w3.org/1999/xlink" x="0px" y="0px"
	 viewBox="0 0 62 62" enable-background="new 0 0 62 62" xml:space="preserve">
<rect fill="none" width="62" height="62"/>
<path fill="#1B1534" d="M40.00244,25.14257L40,23.49999l-0.80908-0.39355c-0.86621,0.68073-1.65503,1.46198-2.40088,2.29828
	C36.05566,16.66949,33.46509,11.99999,31,11.99999c-2.48193,0-4.53662,4.08594-5.49658,10.93066l0.99023,0.13867
	c0.20752-1.48016,0.479-2.84869,0.79736-4.06934H29v1h1v-1h2v-1h-2v-2h-1v2h-1.42554c0.93628-3.08514,2.18774-5,3.42554-5
	c1.63745,0,3.40088,3.45605,4.33276,9H33v-2h-1v2h-1v1h1v2h-2v-2h-1v2h-1v1h4v2h1v-2h1v-1h-1v-2h2.48999
	c0.1582,1.10327,0.28198,2.28137,0.3689,3.52197c-2.27637,2.9624-3.89404,6.75647-4.84399,11.33862
	c-1.35156-6.57446-4.09155-11.52149-8.20581-14.75415L22,23.49999l-0.00244,1.6416
	C21.9751,35.83105,21.9585,43.5537,31.24951,48.93261L32,48.49999c0-2.745-0.16846-5.29834-0.48804-7.67627
	c1.01074-7.25879,3.51855-12.72901,7.4895-16.25537l0.00098,0.57617c0.01904,9.05078,0.0332,15.59082-5.36328,20.48535
	l0.67188,0.74023C40.03662,41.17773,40.02148,34.10155,40.00244,25.14257z M22.99756,25.14355l0.00098-0.57617
	c5.16895,4.58105,7.85596,12.32324,7.99561,23.04395C22.96045,42.55566,22.97559,35.56542,22.99756,25.14355z"/>
</svg>
