<?xml version="1.0" encoding="utf-8"?>
<!-- Generator: Adobe Illustrator 25.1.0, SVG Export Plug-In . SVG Version: 6.00 Build 0)  -->
<svg version="1.1" id="Icon" xmlns="http://www.w3.org/2000/svg" xmlns:xlink="http://www.w3.org/1999/xlink" x="0px" y="0px"
	 viewBox="0 0 62 62" enable-background="new 0 0 62 62" xml:space="preserve">
<rect fill="none" width="62" height="62"/>
<path fill="#1B1534" d="M33,40v-3h3v-4h-4v3h-2v-3h-4v4h3v3H33z M33,34h2v2h-2V34z M30,37h2v2h-2V37z M27,36v-2h2v2H27z M42,27h-4v4
	h4V27z M41,30h-2v-2h2V30z M38,37h4v-4h-4V37z M39,34h2v2h-2V34z M33,28h3v-4h-3v-6h-4v7h3v2h-3v4h4V28z M33,25h2v2h-2V25z M32,30
	h-2v-2h2V30z M32,24h-2v-2h2V24z M32,21h-2v-2h2V21z M23,31h4v-4h-3v-3h-4v4h3V31z M24,28h2v2h-2V28z M21,27v-2h2v2H21z M24,33h-4v4
	h4V33z M23,36h-2v-2h2V36z M23,22h4v-4h-3v-3h-4v4h3V22z M24,19h2v2h-2V19z M21,18v-2h2v2H21z M38,25h4v-7h-3v-3h-4v4h3V25z M39,19
	h2v2h-2V19z M39,22h2v2h-2V22z M36,18v-2h2v2H36z M33,12h-4v4h4V12z M32,15h-2v-2h2V15z M47,40.88916v-0.77637l-4.375-1.12939
	l-0.25,0.96875L44.49902,40.5L31,43.9834l-13.49854-3.48352l2.12354-0.54773l-0.25-0.96875L15,40.11279v5.77441l16,4.12939
	l16-4.12939v-3.01575l-1,0.25781v1.98352l-14.5,3.74158v-3.96716L47,40.88916z M30.5,48.85437L16,45.11279v-3.96716l14.5,3.74158
	V48.85437z"/>
</svg>
