<?xml version="1.0" encoding="utf-8"?>
<!-- Generator: Adobe Illustrator 25.1.0, SVG Export Plug-In . SVG Version: 6.00 Build 0)  -->
<svg version="1.1" id="Icon" xmlns="http://www.w3.org/2000/svg" xmlns:xlink="http://www.w3.org/1999/xlink" x="0px" y="0px"
	 viewBox="0 0 62 62" enable-background="new 0 0 62 62" xml:space="preserve">
<rect fill="none" width="62" height="62"/>
<path fill="#1B1534" d="M51,27v-1h-4v2h-9.76489c-1.36938-1.7041-3.41992-2.83057-5.73511-2.97461V21H36v-1H26v1h4.5v4.02539
	C28.18481,25.16943,26.13428,26.2959,24.76489,28H15v-2h-4v11h1V27h2v12h-3v1h4v-2h9.76489c1.46753,1.82617,3.71545,3,6.23511,3
	s4.76758-1.17383,6.23511-3H47v2h4V29h-1v10h-2V27H51z M15,37v-8h9.08252C23.39832,30.17822,23,31.54224,23,33
	s0.39832,2.82178,1.08252,4H15z M31,40c-3.85986,0-7-3.14014-7-7s3.14014-7,7-7s7,3.14014,7,7S34.85986,40,31,40z M37.91748,37
	C38.60168,35.82178,39,34.45776,39,33s-0.39832-2.82178-1.08252-4H47v8H37.91748z"/>
</svg>
