<?xml version="1.0" encoding="utf-8"?>
<!-- Generator: Adobe Illustrator 26.0.1, SVG Export Plug-In . SVG Version: 6.00 Build 0)  -->
<svg version="1.1" xmlns="http://www.w3.org/2000/svg" xmlns:xlink="http://www.w3.org/1999/xlink" x="0px" y="0px"
	 viewBox="0 0 62 62" enable-background="new 0 0 62 62" xml:space="preserve">
<g id="Hintergrund">
	<rect fill="none" width="62" height="62"/>
</g>
<g id="Icon">
	<path fill="#1B1534" d="M19.91,35.59c0,0.41-0.34,0.75-0.75,0.75c-0.41,0-0.75-0.34-0.75-0.75c0-0.41,0.34-0.75,0.75-0.75
		C19.58,34.84,19.91,35.18,19.91,35.59z M42.1,35.68c1.63-0.71,3.31-1.43,4.43-2.44c2.65-2.38,1.59-5.63,1.54-5.76l-0.19-0.57
		l-12.66,6.93c0.04-0.3,0.18-0.72,0.53-1.26c0.71-1.07,1.91-2.32,3.19-3.65c1.57-1.63,3.19-3.33,4.11-4.91
		c1.73-2.96-0.98-6.31-1.09-6.46l-0.39-0.48L30.65,30.71l0.78,0.62l10.13-12.62c0.61,0.95,1.67,3.04,0.64,4.8
		c-0.86,1.48-2.44,3.13-3.97,4.72c-1.31,1.36-2.54,2.65-3.3,3.79c-1.14,1.72-0.59,2.74-0.52,2.85l0.25,0.41l12.61-6.91
		c0.14,0.92,0.15,2.71-1.4,4.1c-1,0.9-2.61,1.6-4.16,2.27c-2.37,1.03-4.61,2-4.61,3.74V39h8.52c-0.39,0.79-1.08,1.85-1.95,2.04
		c-0.45,0.1-1.15,0.07-1.88,0.04c-1.6-0.06-3.41-0.14-4.55,0.89c-0.01,0.01-0.02,0.02-0.04,0.04l0.71,0.71
		c0.84-0.75,2.43-0.69,3.84-0.63c0.8,0.03,1.56,0.06,2.14-0.06c1.95-0.43,2.92-3.24,2.96-3.36L47.06,38h-8.83
		C38.73,37.14,40.44,36.4,42.1,35.68z M28.84,48c-4.14,0-6.58-3.58-7.67-5.72c-1.78-3.5-3.88-5.65-6.25-6.4
		c0.5-0.78,1.68-2.15,3.83-2.15c2.2,0,3.78,2,5.31,3.94c1.44,1.82,2.79,3.53,4.64,3.53c1.17,0,2.54-0.65,2.54-2.48
		c0-1.68-1.95-2.97-2.88-3.58l-0.25-0.17c-1.77-1.23-2.34-2.87-1.75-5l4.36-15.72c0.89,0.63,2.42,2.04,2.42,4.25
		c0,0.93-0.62,2.7-1.28,4.57c-0.47,1.35-0.96,2.74-1.3,4.02l0.97,0.25c0.32-1.24,0.81-2.61,1.27-3.94c0.72-2.04,1.34-3.8,1.34-4.9
		c0-3.37-2.89-5.15-3.47-5.47l-0.55-0.31L25.4,29.69c-0.71,2.56,0.01,4.61,2.14,6.09l0.27,0.18c0.73,0.48,2.44,1.61,2.44,2.75
		c0,1.29-0.97,1.48-1.54,1.48c-1.36,0-2.57-1.53-3.85-3.15c-1.6-2.02-3.42-4.32-6.1-4.32c-3.61,0-4.98,3.15-5.03,3.28l-0.24,0.56
		l0.6,0.12c2.33,0.49,4.41,2.52,6.21,6.05c2.05,4.04,5.09,6.27,8.56,6.27c4.18,0,6.34-2.75,7.77-4.68l-0.82-0.57
		C34.41,45.61,32.51,48,28.84,48z"/>
</g>
</svg>
