<?xml version="1.0" encoding="utf-8"?>
<!-- Generator: Adobe Illustrator 25.1.0, SVG Export Plug-In . SVG Version: 6.00 Build 0)  -->
<svg version="1.1" id="Icon" xmlns="http://www.w3.org/2000/svg" xmlns:xlink="http://www.w3.org/1999/xlink" x="0px" y="0px"
	 viewBox="0 0 62 62" enable-background="new 0 0 62 62" xml:space="preserve">
<rect fill="none" width="62" height="62"/>
<path fill="#1B1534" d="M19,32v6h-1v-6H19z M21,34v4h1v-4H21z M37,40H12V22h9.95972v-1H11v20h13v3h-3.5v1h8v-1H25v-3h13v-2h-1V40z
	 M51,41c0,0.66797-0.26025,1.2959-0.73242,1.76758C49.7959,43.23975,49.16797,43.5,48.5,43.5s-1.2959-0.26025-1.76758-0.73242
	l-6.93701-6.93652C38.08569,36.89282,36.09619,37.5,34,37.5c-1.04102,0-2.04492-0.15497-3-0.42645V38h-1v-1.26398
	c-0.70459-0.27631-1.37451-0.61957-2-1.02844V38h-1v-3.02142c-0.76123-0.62964-1.43091-1.36401-2-2.17383V38h-1v-6.94421
	c-0.25098-0.54834-0.45508-1.12036-0.61377-1.71228l-2.0249,1.34985l-1.3335-2l-1.75049,1.1665l-0.55469-0.83203l2.58252-1.72119
	l1.3335,2l1.52075-1.01379C23.06299,27.70795,23,27.11182,23,26.5c0-6.06543,4.93457-11,11-11s11,4.93457,11,11
	c0,1.26807-0.21436,2.51172-0.63623,3.69629l-0.94238-0.33594C43.80518,28.78369,44,27.65332,44,26.5c0-5.51416-4.48584-10-10-10
	c-3.48291,0-6.55176,1.79205-8.34302,4.5H38v14.65729c1.90063-0.82898,3.52783-2.23285,4.61572-4.07672
	c0,0.0011,7.65186,7.65186,7.65186,7.65186C50.73975,39.7041,51,40.33203,51,41z M34,36.5c1.0625,0,2.09082-0.18512,3.06836-0.5H37
	V22H25.08203C24.39551,23.35455,24,24.88043,24,26.5c0,0.40045,0.03027,0.79333,0.07617,1.18158l6.14648-4.0976l0.55469,0.83203
	l-6.51099,4.3407c0.43652,1.88208,1.39966,3.56281,2.73364,4.87274V32h1v2.48102c0.6167,0.46484,1.28442,0.86456,2,1.17828V29h1
	v7.03888C31.94751,36.33752,32.95508,36.5,34,36.5z M50,41c0-0.40088-0.15625-0.77734-0.43945-1.06055l-6.80762-6.80811
	c-0.61279,0.80957-1.32202,1.52417-2.1167,2.12646l6.80322,6.80273c0.56641,0.56641,1.55469,0.56641,2.12109,0
	C49.84375,41.77734,50,41.40088,50,41z"/>
</svg>
