<?xml version="1.0" encoding="utf-8"?>
<!-- Generator: Adobe Illustrator 25.1.0, SVG Export Plug-In . SVG Version: 6.00 Build 0)  -->
<svg version="1.1" id="Icon" xmlns="http://www.w3.org/2000/svg" xmlns:xlink="http://www.w3.org/1999/xlink" x="0px" y="0px"
	 viewBox="0 0 62 62" enable-background="new 0 0 62 62" xml:space="preserve">
<rect fill="none" width="62" height="62"/>
<path fill="#1B1534" d="M35.75,17.5c0-0.41418,0.33582-0.75,0.75-0.75c0.41431,0,0.75,0.33582,0.75,0.75s-0.33569,0.75-0.75,0.75
	C36.08582,18.25,35.75,17.91418,35.75,17.5z M36.5,22.75c-0.41418,0-0.75,0.33582-0.75,0.75s0.33582,0.75,0.75,0.75
	c0.41431,0,0.75-0.33582,0.75-0.75S36.91431,22.75,36.5,22.75z M35.75,29.5c0,0.41418,0.33582,0.75,0.75,0.75
	c0.41431,0,0.75-0.33582,0.75-0.75s-0.33569-0.75-0.75-0.75C36.08582,28.75,35.75,29.08582,35.75,29.5z M25.25,45.5
	c0,0.41418,0.33582,0.75,0.75,0.75c0.41431,0,0.75-0.33582,0.75-0.75s-0.33569-0.75-0.75-0.75
	C25.58582,44.75,25.25,45.08582,25.25,45.5z M17.25,17.5c0-0.41418-0.33569-0.75-0.75-0.75c-0.41418,0-0.75,0.33582-0.75,0.75
	s0.33582,0.75,0.75,0.75C16.91431,18.25,17.25,17.91418,17.25,17.5z M16.5,24.25c0.41431,0,0.75-0.33582,0.75-0.75
	s-0.33569-0.75-0.75-0.75c-0.41418,0-0.75,0.33582-0.75,0.75S16.08582,24.25,16.5,24.25z M16.5,28.75
	c-0.41418,0-0.75,0.33582-0.75,0.75s0.33582,0.75,0.75,0.75c0.41431,0,0.75-0.33582,0.75-0.75S16.91431,28.75,16.5,28.75z M47,17h-4
	v1h4V17z M43,23v1h4v-1H43z M49,30v-3H34v5h16v1H33V14h17v16H49z M34,15v5h15v-5H34z M49,26v-5H34v5H49z M47,30v-1h-4v1H47z
	 M22.5,49h17v-1h-16v-5h15v3h1v-4h-17V49z M36.5,46v-1h-4v1H36.5z M29,33H12V17h1v3h15v-5H12v-1h17V33z M13,21v5h15v-5H13z M28,32
	v-5H13v5H28z M22,17v1h4v-1H22z M26,23h-4v1h4V23z M22,30h4v-1h-4V30z M41,37H21v-2h-1v3h10.5v2h1v-2H42v-3h-1V37z"/>
</svg>
