<?xml version="1.0" encoding="utf-8"?>
<!-- Generator: Adobe Illustrator 26.0.1, SVG Export Plug-In . SVG Version: 6.00 Build 0)  -->
<svg version="1.1" xmlns="http://www.w3.org/2000/svg" xmlns:xlink="http://www.w3.org/1999/xlink" x="0px" y="0px"
	 viewBox="0 0 62 62" enable-background="new 0 0 62 62" xml:space="preserve">
<g id="Hintergrund">
	<rect fill="none" width="62" height="62"/>
</g>
<g id="Icon">
	<path fill="#1B1534" d="M15.26,36.99l4.24,4.24l4.24-4.24l-0.71-0.71L20,39.32V29h-1v10.32l-3.04-3.04L15.26,36.99z M29,51h-1V33
		h23v1H29V51z M37.97,31.5h-2.95l-0.39-7h-1.41l-0.49-7.6l2.36-0.97L36.5,17l1.4-1.07l2.36,0.97l-0.46,7.13l-1-0.06l0.41-6.42
		l-1.17-0.48l-1.55,1.19l-1.55-1.19l-1.17,0.48l0.38,5.95h1.41l0.39,7h1.06l0.22-4.03l1,0.06L37.97,31.5z M36.5,15.5
		c-1.1,0-2-1.01-2-2.25s0.9-2.25,2-2.25s2,1.01,2,2.25S37.6,15.5,36.5,15.5z M36.5,12c-0.55,0-1,0.56-1,1.25s0.45,1.25,1,1.25
		s1-0.56,1-1.25S37.05,12,36.5,12z"/>
</g>
</svg>
