<?xml version="1.0" encoding="utf-8"?>
<!-- Generator: Adobe Illustrator 25.1.0, SVG Export Plug-In . SVG Version: 6.00 Build 0)  -->
<svg version="1.1" id="Icon" xmlns="http://www.w3.org/2000/svg" xmlns:xlink="http://www.w3.org/1999/xlink" x="0px" y="0px"
	 viewBox="0 0 62 62" enable-background="new 0 0 62 62" xml:space="preserve">
<rect fill="none" width="62" height="62"/>
<path fill="#1B1534" d="M46.27734,25.58398C47.01465,26.0752,47.65137,26.5,49,26.5v1c-1.65137,0-2.51514-0.57617-3.27734-1.08398
	C44.98535,25.9248,44.34863,25.5,43,25.5s-1.98535,0.4248-2.72266,0.91602C39.51514,26.92383,38.65137,27.5,37,27.5
	s-2.51514-0.57617-3.27734-1.08398C32.98535,25.9248,32.34863,25.5,31,25.5s-1.98535,0.4248-2.72266,0.91602
	C27.51514,26.92383,26.65137,27.5,25,27.5s-2.51514-0.57617-3.27734-1.08398C20.98535,25.9248,20.34863,25.5,19,25.5
	s-1.98535,0.4248-2.72266,0.91602C15.51514,26.92383,14.65137,27.5,13,27.5v-1c1.34863,0,1.98535-0.4248,2.72266-0.91602
	C16.48486,25.07617,17.34863,24.5,19,24.5s2.51514,0.57617,3.27734,1.08398C23.01465,26.0752,23.65137,26.5,25,26.5
	s1.98535-0.4248,2.72266-0.91602C28.48486,25.07617,29.34863,24.5,31,24.5s2.51514,0.57617,3.27734,1.08398
	C35.01465,26.0752,35.65137,26.5,37,26.5s1.98535-0.4248,2.72266-0.91602C40.48486,25.07617,41.34863,24.5,43,24.5
	S45.51514,25.07617,46.27734,25.58398z M19,20.5c1.34863,0,1.98535,0.4248,2.72266,0.91602
	c0.3252,0.2168,0.66113,0.44043,1.06592,0.62988l0.42285-0.90625c-0.33594-0.15723-0.62646-0.35059-0.93408-0.55566
	C21.51514,20.07617,20.65137,19.5,19,19.5s-2.51514,0.57617-3.27734,1.08398C14.98535,21.0752,14.34863,21.5,13,21.5v1
	c1.65137,0,2.51514-0.57617,3.27734-1.08398C17.01465,20.9248,17.65137,20.5,19,20.5z M46.27734,20.58398
	C45.51514,20.07617,44.65137,19.5,43,19.5s-2.51514,0.57617-3.27734,1.08398C38.98535,21.0752,38.34863,21.5,37,21.5
	s-1.98535-0.4248-2.72266-0.91602C33.51514,20.07617,32.65137,19.5,31,19.5s-2.51514,0.57617-3.27734,1.08398
	C26.98535,21.0752,26.34863,21.5,25,21.5v1c1.65137,0,2.51514-0.57617,3.27734-1.08398C29.01465,20.9248,29.65137,20.5,31,20.5
	s1.98535,0.4248,2.72266,0.91602C34.48486,21.92383,35.34863,22.5,37,22.5s2.51514-0.57617,3.27734-1.08398
	C41.01465,20.9248,41.65137,20.5,43,20.5s1.98535,0.4248,2.72266,0.91602C46.48486,21.92383,47.34863,22.5,49,22.5v-1
	C47.65137,21.5,47.01465,21.0752,46.27734,20.58398z M19,30.5c1.34863,0,1.98535,0.4248,2.72266,0.91602
	C22.48486,31.92383,23.34863,32.5,25,32.5s2.51514-0.57617,3.27734-1.08398C29.01465,30.9248,29.65137,30.5,31,30.5
	s1.98535,0.4248,2.72266,0.91602C34.48486,31.92383,35.34863,32.5,37,32.5v-1c-1.34863,0-1.98535-0.4248-2.72266-0.91602
	C33.51514,30.07617,32.65137,29.5,31,29.5s-2.51514,0.57617-3.27734,1.08398C26.98535,31.0752,26.34863,31.5,25,31.5
	s-1.98535-0.4248-2.72266-0.91602C21.51514,30.07617,20.65137,29.5,19,29.5s-2.51514,0.57617-3.27734,1.08398
	C14.98535,31.0752,14.34863,31.5,13,31.5v1c1.65137,0,2.51514-0.57617,3.27734-1.08398C17.01465,30.9248,17.65137,30.5,19,30.5z
	 M43,29.5c-1.67432,0-2.52783,0.57715-3.28076,1.08594c-0.27686,0.1875-0.53809,0.36426-0.83496,0.5127l0.44727,0.89453
	c0.35547-0.17773,0.65674-0.38184,0.94775-0.57812C41.00488,30.92383,41.63184,30.5,43,30.5
	c1.34863,0,1.98535,0.4248,2.72266,0.91602C46.48486,31.92383,47.34863,32.5,49,32.5v-1c-1.34863,0-1.98535-0.4248-2.72266-0.91602
	C45.51514,30.07617,44.65137,29.5,43,29.5z M19,35.5c1.34863,0,1.98535,0.4248,2.72266,0.91602
	C22.48486,36.92383,23.34863,37.5,25,37.5c1.65088,0,2.51465-0.57617,3.27686-1.08398
	c0.30127-0.2002,0.58545-0.39062,0.91309-0.54492l-0.42871-0.9043c-0.39258,0.18652-0.72119,0.40527-1.03906,0.61719
	C26.98486,36.0752,26.34814,36.5,25,36.5c-1.34863,0-1.98535-0.4248-2.72266-0.91602C21.51514,35.07617,20.65137,34.5,19,34.5
	s-2.51514,0.57617-3.27734,1.08398C14.98535,36.0752,14.34863,36.5,13,36.5v1c1.65137,0,2.51514-0.57617,3.27734-1.08398
	C17.01465,35.9248,17.65137,35.5,19,35.5z M43,34.5c-1.65137,0-2.51514,0.57617-3.27734,1.08398
	C38.98535,36.0752,38.34863,36.5,37,36.5s-1.98535-0.4248-2.72266-0.91602C33.51514,35.07617,32.65137,34.5,31,34.5v1
	c1.34863,0,1.98535,0.4248,2.72266,0.91602C34.48486,36.92383,35.34863,37.5,37,37.5s2.51514-0.57617,3.27734-1.08398
	C41.01465,35.9248,41.65137,35.5,43,35.5s1.98535,0.4248,2.72266,0.91602C46.48486,36.92383,47.34863,37.5,49,37.5v-1
	c-1.34863,0-1.98535-0.4248-2.72266-0.91602C45.51514,35.07617,44.65137,34.5,43,34.5z M43,39.5
	c-1.65137,0-2.51514,0.57617-3.27734,1.08398C38.98535,41.0752,38.34863,41.5,37,41.5s-1.98535-0.4248-2.72266-0.91602
	C33.51514,40.07617,32.65137,39.5,31,39.5s-2.51514,0.57617-3.27734,1.08398C26.98535,41.0752,26.34863,41.5,25,41.5
	s-1.98535-0.4248-2.72266-0.91602C21.51514,40.07617,20.65137,39.5,19,39.5s-2.51514,0.57617-3.27734,1.08398
	C14.98535,41.0752,14.34863,41.5,13,41.5v1c1.65137,0,2.51514-0.57617,3.27734-1.08398C17.01465,40.9248,17.65137,40.5,19,40.5
	s1.98535,0.4248,2.72266,0.91602C22.48486,41.92383,23.34863,42.5,25,42.5s2.51514-0.57617,3.27734-1.08398
	C29.01465,40.9248,29.65137,40.5,31,40.5s1.98535,0.4248,2.72266,0.91602C34.48486,41.92383,35.34863,42.5,37,42.5
	s2.51514-0.57617,3.27734-1.08398C41.01465,40.9248,41.65137,40.5,43,40.5s1.98535,0.4248,2.72266,0.91602
	C46.48486,41.92383,47.34863,42.5,49,42.5v-1c-1.34863,0-1.98535-0.4248-2.72266-0.91602C45.51514,40.07617,44.65137,39.5,43,39.5z"
	/>
</svg>
