<?xml version="1.0" encoding="utf-8"?>
<!-- Generator: Adobe Illustrator 26.0.1, SVG Export Plug-In . SVG Version: 6.00 Build 0)  -->
<svg version="1.1" xmlns="http://www.w3.org/2000/svg" xmlns:xlink="http://www.w3.org/1999/xlink" x="0px" y="0px"
	 viewBox="0 0 62 62" enable-background="new 0 0 62 62" xml:space="preserve">
<g id="Hintergrund">
	<rect fill="none" width="62" height="62"/>
</g>
<g id="Icon">
	<path fill="#1B1534" d="M15.62,28.52l-0.5,0.87l4.15,2.4l5.13-5.53c1.03-0.19,2.72-0.5,3.66-0.67C28.33,26.96,29.55,28,31,28
		c1.45,0,2.67-1.04,2.94-2.41l3.67,0.67l5.13,5.52l4.15-2.4l-0.5-0.87l-3.46,2l-4.78-5.15l-0.01-0.03L33,24.4V25c0,1.1-0.9,2-2,2
		c-1.08,0-1.96-0.86-2-1.92l0.65-1.91c0.42,0.21,0.88,0.33,1.35,0.33c1.39,0,2.63-0.99,3.35-2.51c0.05,0,0.1,0.01,0.15,0.01
		c1.1,0,2-0.9,2-2c0-0.23-0.04-0.46-0.12-0.68c0.7-0.57,1.12-1.42,1.12-2.32c0-1.35-0.9-2.52-2.17-2.88
		c-0.36-0.96-1.29-1.62-2.33-1.62c-0.34,0-0.67,0.07-0.98,0.2c-0.38-0.44-0.93-0.7-1.52-0.7c-0.77,0-1.45,0.45-1.78,1.11
		C28.48,12.04,28.24,12,28,12c-1.3,0-2.37,1-2.49,2.27c-0.62,0.35-1.01,1.01-1.01,1.73c0,0.59,0.26,1.13,0.71,1.5
		c-0.14,0.31-0.21,0.65-0.21,1c0,1.38,1.12,2.5,2.5,2.5c0.05,0,0.1-0.02,0.14-0.02c0.3,0.64,0.69,1.18,1.15,1.6l-0.67,1.98
		c-1.22,0.22-4.26,0.78-4.26,0.78l-0.01,0.03l-4.78,5.15L15.62,28.52z M28,18v-0.56c0.16,0.04,0.33,0.06,0.5,0.06
		c0.96,0,1.76-0.68,1.95-1.58c0.43,0.12,0.92,0.09,1.33-0.08c0.54,0.98,1.76,1.46,2.93,0.94l-0.43-0.9
		c-0.71,0.34-1.61-0.12-1.76-0.89l-0.84-0.27c-0.39,0.37-1.04,0.36-1.41-0.03l-0.84,0.5c0.04,0.12,0.06,0.21,0.06,0.31
		c0,0.55-0.45,1-1,1c-0.25,0-0.48-0.09-0.66-0.26L27,16.61V18c0,0.7,0.1,1.36,0.27,1.98C26.55,19.87,26,19.25,26,18.5
		c0-0.31,0.1-0.61,0.28-0.87l-0.2-0.75c-0.36-0.17-0.59-0.51-0.59-0.88c0-0.42,0.27-0.8,0.67-0.94l0.35-0.49
		C26.48,13.66,27.17,13,28,13c0.27,0,0.52,0.07,0.76,0.22l0.75-0.36C29.59,12.37,30.01,12,30.5,12c0.39,0,0.73,0.22,0.9,0.58
		l0.74,0.2c0.26-0.18,0.55-0.27,0.86-0.27c0.66,0,1.25,0.45,1.45,1.16l0.4,0.37c0.96,0.17,1.65,1,1.65,1.97
		c0,0.72-0.38,1.36-1.01,1.72l-0.16,0.71c0.11,0.17,0.17,0.36,0.17,0.56c0,0.47-0.33,0.84-0.76,0.95c0.08-0.28,0.14-0.57,0.18-0.87
		l-0.99-0.14C33.64,21,32.4,22.5,31,22.5C29.35,22.5,28,20.48,28,18z M48.98,27.02l-0.87,0.5l0.75,1.3
		c0.41,0.72,0.17,1.64-0.55,2.05l-5.45,3.15l-5.27-2.79l-1.21,9.66L31,42.07l-5.39-1.18l-1.21-9.66l-5.28,2.79l-5.45-3.15
		c-0.72-0.41-0.96-1.33-0.55-2.05l0.75-1.3l-0.87-0.5l-0.75,1.3c-0.33,0.58-0.42,1.25-0.25,1.9s0.59,1.18,1.16,1.52l5.93,3.42
		l4.48-2.37l0.98,7.87l-1.01-0.22c-1.38-0.3-2.75,0.53-3.12,1.89c-0.21,0.78,0.23,1.58,1,1.82l0.04,0.01l-0.52,0.11
		c-0.67,0.15-1.24,0.55-1.6,1.14c-0.36,0.59-0.46,1.28-0.28,1.95l0.21,0.79c0.18,0.67,0.61,1.21,1.21,1.55
		c0.37,0.21,0.78,0.31,1.2,0.31c0.25,0,0.51-0.04,0.76-0.12l5.35-1.7l-0.4-0.92l-5.25,1.67c-0.39,0.13-0.81,0.08-1.17-0.11
		c-0.36-0.2-0.62-0.53-0.73-0.93l-0.21-0.79c-0.11-0.4-0.05-0.81,0.17-1.17s0.56-0.6,0.96-0.69l2.21-0.49l16.14,5.12
		c0.25,0.08,0.51,0.12,0.76,0.12c0.41,0,0.82-0.1,1.2-0.31c0.6-0.33,1.04-0.88,1.21-1.55l0.21-0.79c0.18-0.67,0.08-1.36-0.28-1.95
		c-0.36-0.59-0.93-0.99-1.6-1.14l-7.71-1.69l5.32-1.17c0.12-0.03,0.24-0.04,0.35-0.04c0.7,0,1.33,0.46,1.55,1.15l0.99-0.2
		c-0.37-1.36-1.73-2.19-3.11-1.89l-1.01,0.22l0.98-7.87l4.48,2.37l5.93-3.42c1.19-0.69,1.6-2.22,0.92-3.42L48.98,27.02z
		 M40.82,45.25c0.4,0.09,0.74,0.33,0.96,0.69c0.21,0.35,0.27,0.77,0.17,1.17l-0.21,0.79c-0.11,0.4-0.37,0.73-0.73,0.93
		c-0.36,0.2-0.78,0.24-1.17,0.11l-18.09-5.74c-0.26-0.08-0.4-0.35-0.33-0.61c0.2-0.73,0.85-1.22,1.58-1.22
		c0.12,0,0.24,0.01,0.35,0.04L40.82,45.25z"/>
</g>
</svg>
