<?xml version="1.0" encoding="utf-8"?>
<!-- Generator: Adobe Illustrator 25.1.0, SVG Export Plug-In . SVG Version: 6.00 Build 0)  -->
<svg version="1.1" id="Icon" xmlns="http://www.w3.org/2000/svg" xmlns:xlink="http://www.w3.org/1999/xlink" x="0px" y="0px"
	 viewBox="0 0 62 62" enable-background="new 0 0 62 62" xml:space="preserve">
<rect fill="none" width="62" height="62"/>
<path fill="#FFFFFF" d="M31.05469,24.77002H32V31h-1.06201v-5.02344l-1.13428,0.76514l-0.46826-0.85498L31.05469,24.77002z M50,43
	V33H38v12h13v1H11V29.3335L14.25,25H24v-3.6665L27.25,17h7.5L38,21.3335V28h9.75L51,32.3335V43H50z M25.5,21h11l-2.25-3h-6.5
	L25.5,21z M12,45h12V26h-9.25l-2.25,3H22v1H12V45z M37,45V22H25v23H37z M38,32h11.5l-2.25-3H38V32z"/>
</svg>
