<?xml version="1.0" encoding="utf-8"?>
<!-- Generator: Adobe Illustrator 26.0.1, SVG Export Plug-In . SVG Version: 6.00 Build 0)  -->
<svg version="1.1" xmlns="http://www.w3.org/2000/svg" xmlns:xlink="http://www.w3.org/1999/xlink" x="0px" y="0px"
	 viewBox="0 0 62 62" enable-background="new 0 0 62 62" xml:space="preserve">
<g id="Hintergrund">
	<rect fill="none" width="62" height="62"/>
</g>
<g id="Icon">
	<path fill="#FFFFFF" d="M24,25v6.5h-1V25H24z M34.5,32.9v0.6c0,1.93-1.57,3.5-3.5,3.5c-1.91,0-3.46-1.54-3.49-3.44l0,0l0.95-2.81
		c0.77,0.47,1.63,0.75,2.54,0.75c2.71,0,5.09-2.43,5.79-5.9l-0.98-0.2c-0.61,3-2.59,5.1-4.81,5.1c-2.76,0-5-3.14-5-7V23h12v6.5
		c0,1.38,1.12,2.5,2.5,2.5v-1c-0.83,0-1.5-0.67-1.5-1.5V23h1.5v-3h-1.01c-0.15-2.62-1.51-5.04-3.7-6.53l-0.56,0.83
		c2.06,1.4,3.28,3.72,3.28,6.2V21h1v1h-17v-1h1v-0.5c0-3.19,2.03-5.99,5-7.05v2.05h1V12h3v3.5h1V11h-5v1.4
		c-3.39,1.04-5.78,4.07-5.99,7.6H21.5v3H25v0.5c0,2.75,1.03,5.18,2.62,6.62l-1,2.93l0,0l-8.65,1.53L19,50.53l1-0.06l-0.97-15.05
		l7.51-1.33C26.83,36.29,28.72,38,31,38s4.17-1.71,4.46-3.91l7.51,1.33L42,50.47l1,0.06l1.03-15.95L34.5,32.9z"/>
</g>
</svg>
