<?xml version="1.0" encoding="utf-8"?>
<!-- Generator: Adobe Illustrator 25.1.0, SVG Export Plug-In . SVG Version: 6.00 Build 0)  -->
<svg version="1.1" id="Icon" xmlns="http://www.w3.org/2000/svg" xmlns:xlink="http://www.w3.org/1999/xlink" x="0px" y="0px"
	 viewBox="0 0 62 62" enable-background="new 0 0 62 62" xml:space="preserve">
<rect fill="none" width="62" height="62"/>
<path fill="#FFFFFF" d="M50.04541,39.79517l-3.80371,8.15674l-6.76562-3.15479l-13.55273,1.18555
	c-1.19727,0.10498-2.36572-0.26367-3.28564-1.03613l-10.78027-9.0459l0.20947-0.36328
	c0.40088-0.69385,1.04785-1.19043,1.82178-1.39795c0.77441-0.20703,1.58252-0.1001,2.27637,0.2998l6.54932,3.78125l-0.5,0.86621
	l-6.54932-3.78125c-0.83252-0.48193-1.87207-0.29248-2.48926,0.39648l10.10449,8.479
	c0.71631,0.60059,1.62695,0.88184,2.55615,0.80566l13.81934-1.20898l6.10254,2.84521l2.95801-6.34424l-7.38232-3.44238
	c-1.02734-0.479-2.16016-0.62793-3.27832-0.43164l-11.77148,2.07568c-0.32178,0.05713-0.60254,0.23584-0.79004,0.50342
	s-0.25928,0.59229-0.20264,0.91406c0.11133,0.63037,0.68945,1.05908,1.31201,1.00684l9.36133-0.81934l0.08691,0.99609
	l-9.36133,0.81934c-1.15332,0.10156-2.18115-0.68506-2.3833-1.8291c-0.10352-0.58496,0.02734-1.1748,0.36816-1.66162
	c0.34033-0.48633,0.8501-0.81104,1.43506-0.91406l11.77148-2.07568c1.32031-0.23291,2.65967-0.05664,3.875,0.50977
	L50.04541,39.79517z M27.39746,25.00684c0.72461,0,1.2998-0.10718,1.64746-0.19421l0.13721,0.13708
	c0.8374,0.8374,1.31787,1.99707,1.31787,3.18164v5.47607V34h1v-0.39258c0-1.20215,0.46826-2.33203,1.31787-3.18213l6.42822-6.42822
	l-0.70703-0.70703l-3.51978,3.51978c-0.10034-0.99622,0.04175-2.76837,1.78198-4.50854
	c2.16162-2.16113,4.375-1.85938,5.08398-1.68701c0.17285,0.7124,0.47314,2.9248-1.68652,5.08447
	c-0.8208,0.8208-1.73438,1.36914-2.71533,1.62891l0.25586,0.9668c1.15381-0.30615,2.21924-0.94141,3.1665-1.88867
	c3.03271-3.03271,1.90186-6.23242,1.85205-6.36719l-0.08008-0.21631l-0.21631-0.08008
	c-0.13574-0.04932-3.33496-1.18018-6.36719,1.85205c-2.55225,2.55212-2.15649,5.21521-1.93701,6.0777l-2.04639,2.04633
	c-0.22998,0.22992-0.42773,0.48242-0.61084,0.74316v-2.33008c0-1.46875-0.57227-2.8501-1.61084-3.88867l-6.56592-6.56592
	l-0.70703,0.70703l5.57227,5.5722c-1.23438,0.1601-3.58887,0.06598-5.8999-2.24457
	c-2.82178-2.82178-2.34033-5.71729-2.12354-6.54639c0.82764-0.2168,3.72412-0.69873,6.54639,2.12354
	c1.14453,1.14453,1.86963,2.42676,2.1543,3.81201l0.97949-0.20117c-0.32471-1.58008-1.14111-3.0332-2.42676-4.31787
	c-3.73535-3.73584-7.66113-2.34717-7.82715-2.28662L19.375,14.37452l-0.08008,0.2168
	c-0.06104,0.16553-1.44824,4.09229,2.28662,7.82715C23.69873,24.53565,25.87695,25.00684,27.39746,25.00684z"/>
</svg>
