<?xml version="1.0" encoding="utf-8"?>
<!-- Generator: Adobe Illustrator 25.1.0, SVG Export Plug-In . SVG Version: 6.00 Build 0)  -->
<svg version="1.1" id="Icon" xmlns="http://www.w3.org/2000/svg" xmlns:xlink="http://www.w3.org/1999/xlink" x="0px" y="0px"
	 viewBox="0 0 62 62" enable-background="new 0 0 62 62" xml:space="preserve">
<rect fill="none" width="62" height="62"/>
<path fill="#FFFFFF" d="M50,41V19H12v24h39v1H11V18h40v23H50z M15,41h1v-5h-1V41z M19,41v-8h-1v8H19z M21,41h1v-4h-1V41z M25,41v-6
	h-1v6H25z M31,41v-9h-1v9H31z M28,41v-5h-1v5H28z M30.72266,22.58398l-8.58398,5.72266l-2.00049-3.00049l-5.40381,3.61133
	l0.55566,0.83105l4.57178-3.05469l1.99951,2.99951l9.41602-6.27734L30.72266,22.58398z M47,30h-6v-6h0.5
	c3.03271,0,5.5,2.46729,5.5,5.5V30z M45.97217,29C45.74121,26.91748,44.08252,25.25879,42,25.02783V29H45.97217z M39,27.05054
	v-1.02515c-2.79883,0.25366-5,2.6106-5,5.47461c0,3.03271,2.46729,5.5,5.5,5.5c2.86401,0,5.22095-2.20105,5.47461-5h-1.02515
	c-0.25244,2.2439-2.13916,4-4.44946,4c-2.48145,0-4.5-2.01855-4.5-4.5C35,29.1897,36.7561,27.30298,39,27.05054z"/>
</svg>
