<?xml version="1.0" encoding="utf-8"?>
<!-- Generator: Adobe Illustrator 25.1.0, SVG Export Plug-In . SVG Version: 6.00 Build 0)  -->
<svg version="1.1" id="Icon" xmlns="http://www.w3.org/2000/svg" xmlns:xlink="http://www.w3.org/1999/xlink" x="0px" y="0px"
	 viewBox="0 0 62 62" enable-background="new 0 0 62 62" xml:space="preserve">
<rect fill="none" width="62" height="62"/>
<path fill="#FFFFFF" d="M49,41V22h-5v-3h-8v3H26v-3h-8v3h-5v22h36v-1H14V23h5v-3h6v2h-4v1h27v18H49z M37,20h6v2h-6V20z M21.5,37
	v-3.5H18v-1h3.5V29h1v3.5H26v1h-3.5V37H21.5z M36,33.5v-1h8v1H36z"/>
</svg>
