<?xml version="1.0" encoding="utf-8"?>
<!-- Generator: Adobe Illustrator 25.1.0, SVG Export Plug-In . SVG Version: 6.00 Build 0)  -->
<svg version="1.1" id="Icon" xmlns="http://www.w3.org/2000/svg" xmlns:xlink="http://www.w3.org/1999/xlink" x="0px" y="0px"
	 viewBox="0 0 62 62" enable-background="new 0 0 62 62" xml:space="preserve">
<rect fill="none" width="62" height="62"/>
<path fill="#FFFFFF" d="M49,43V23H15v-1h34v-5H13v28h37v1H12V16h38v27H49z M44,19v1h3v-1H44z M39,19v1h3v-1H39z M34,19v1h3v-1H34z
	 M27.94727,41.22363l7-14l-0.89453-0.44727l-7,14L27.94727,41.22363z M37.35352,37.35352L41.20703,33.5l-3.85352-3.85352
	l-0.70703,0.70703L39.79297,33.5l-3.14648,3.14648L37.35352,37.35352z M24.64648,29.64648L20.79297,33.5l3.85352,3.85352
	l0.70703-0.70703L22.20703,33.5l3.14648-3.14648L24.64648,29.64648z"/>
</svg>
