<?xml version="1.0" encoding="utf-8"?>
<!-- Generator: Adobe Illustrator 25.1.0, SVG Export Plug-In . SVG Version: 6.00 Build 0)  -->
<svg version="1.1" id="Icon" xmlns="http://www.w3.org/2000/svg" xmlns:xlink="http://www.w3.org/1999/xlink" x="0px" y="0px"
	 viewBox="0 0 62 62" enable-background="new 0 0 62 62" xml:space="preserve">
<rect fill="none" width="62" height="62"/>
<path fill="#FFFFFF" d="M17,24.99998h4v1h-3v4h-4v-4h-2v10h2v-4h4v4h2v-8h1v9h-4v-4h-2v4h-4v-12h4v4h2V24.99998z M26.5,38.11766
	h-2.6377c0.57617-0.53125,0.90918-0.87305,1.33203-1.32324c0.94531-1.02637,1.26074-1.62939,1.26074-2.40381
	c0-1.08936-0.75635-1.71973-2.05273-1.71973c-0.64844,0-1.24219,0.13525-1.87256,0.43213l0.26123,0.90967
	c0.55811-0.31543,1.06201-0.46826,1.49414-0.46826c0.63916,0,1.07129,0.36914,1.07129,0.90918
	c0,0.75635-0.69287,1.62061-2.93457,3.68213v0.86426H26.5V38.11766z M28.43872,26.61375l-6.81689-8.72461l6.95728-4.68213
	l0.30371,1.21802l7.27246-1.27515l-0.21826,1.23718l7.1626,1.7926l-0.70264,1.04163l5.81396,4.55115l-10.36426,6.47607
	l-0.26465-0.4248c-1.12109-1.79834-3.08545-2.81836-5.10498-2.81836c-0.81445,0-1.63721,0.16602-2.41748,0.51318
	C29.44897,25.79027,28.91553,26.17308,28.43872,26.61375z M41.83667,18.05223l-5.03589,7.46594
	c0.49951,0.39026,0.9646,0.83252,1.34961,1.36121l8.32031-5.19873L41.83667,18.05223z M35.76294,15.37425l-1.56177,8.85583
	c0.62109,0.1571,1.21069,0.4115,1.76904,0.73071l5.50244-8.1571L35.76294,15.37425z M29.12549,15.39818l2.17749,8.73254
	c0.63867-0.10925,1.28149-0.14807,1.91504-0.08057l1.70483-9.66882L29.12549,15.39818z M23.07153,18.11949l5.52661,7.07434
	c0.33228-0.22217,0.68213-0.42261,1.05469-0.58838c0.22217-0.099,0.4519-0.15942,0.6792-0.23352l-2.37793-9.53894L23.07153,18.11949
	z M49.3623,29.13512l0.50781,7.36584l-1.20728-0.34619l-2.53198,6.93604l-0.96216-0.8075l-5.13403,5.30603l-0.55054-1.12854
	l-6.8479,2.75891l-0.04395-1.25537l-7.37866-0.26465l4.59375-11.36951c0.18066,0.09094,0.35083,0.19788,0.54224,0.27136
	c1.49707,0.57471,3.12695,0.53125,4.59082-0.12012c2.43066-1.08252,3.86865-3.6792,3.49707-6.31592l-0.06982-0.49512
	l10.68604-1.50195l-1.8186-3.42798l0.85034-0.53125l2.52002,4.75122L49.3623,29.13512z M32.55737,46.96275l-0.31348-8.97083
	c-0.63794-0.02393-1.27319-0.13635-1.89331-0.3374l-3.67529,9.09692L32.55737,46.96275z M39.04443,45.55956l-3.93774-8.07275
	c-0.60522,0.2439-1.22998,0.40771-1.86353,0.47607l0.34229,9.7959L39.04443,45.55956z M44.40088,41.6389l-6.89307-5.78467
	c-0.44165,0.45825-0.94434,0.85767-1.50708,1.18506l4.30737,8.82935L44.40088,41.6389z M47.69922,35.8784l-8.64844-2.47998
	c-0.22168,0.60303-0.52686,1.16797-0.90186,1.68872l7.53174,6.32007L47.69922,35.8784z M48.77441,35.14647l-0.40527-5.87183
	l-8.88965,1.24927c0.04419,0.651-0.01709,1.29248-0.14966,1.91455L48.77441,35.14647z"/>
</svg>
