<?xml version="1.0" encoding="utf-8"?>
<!-- Generator: Adobe Illustrator 26.0.1, SVG Export Plug-In . SVG Version: 6.00 Build 0)  -->
<svg version="1.1" xmlns="http://www.w3.org/2000/svg" xmlns:xlink="http://www.w3.org/1999/xlink" x="0px" y="0px"
	 viewBox="0 0 62 62" enable-background="new 0 0 62 62" xml:space="preserve">
<g id="Hintergrund">
	<rect fill="none" width="62" height="62"/>
</g>
<g id="Icon">
	<path fill="#FFFFFF" d="M21,15h23v-1H18v1h2v7h-2v1h2v16h-2v1h2v7h-2v1h26v-1h-2v-7h2v-1h-2V23h2v-1h-2v-5h-1v5H21V15z M41,23v16
		H23v1h18v7H21V23H41z M35.08,30.33c-0.43-0.25-0.9-0.37-1.38-0.39c0.22-0.42,0.35-0.89,0.35-1.39c0-1.22-0.73-2.32-1.85-2.81
		l-0.39,0.92c0.76,0.32,1.25,1.06,1.25,1.89c0,0.24-0.05,0.46-0.12,0.67C32.4,28.78,31.74,28.5,31,28.5s-1.4,0.28-1.93,0.72
		c-0.07-0.21-0.12-0.43-0.12-0.67c0-0.82,0.49-1.56,1.25-1.89l-0.39-0.92c-1.13,0.48-1.85,1.58-1.85,2.81c0,0.5,0.13,0.97,0.35,1.39
		c-0.48,0.02-0.95,0.15-1.38,0.39c-1.06,0.61-1.65,1.79-1.5,3.01l0.99-0.12c-0.1-0.82,0.3-1.61,1.01-2.02
		c0.2-0.12,0.42-0.19,0.63-0.23C28.02,31.14,28,31.32,28,31.5c0,1.3,0.83,2.4,1.99,2.81c-0.15,0.17-0.32,0.32-0.52,0.44
		c-0.71,0.41-1.6,0.36-2.26-0.14l-0.6,0.8c0.54,0.41,1.19,0.61,1.83,0.61c0.52,0,1.05-0.14,1.52-0.41c0.43-0.25,0.77-0.59,1.03-1
		c0.26,0.4,0.6,0.75,1.03,1c0.47,0.27,1,0.41,1.52,0.41c0.65,0,1.29-0.21,1.83-0.61l-0.6-0.8c-0.66,0.49-1.54,0.55-2.26,0.14
		c-0.2-0.12-0.37-0.27-0.52-0.44C33.17,33.9,34,32.8,34,31.5c0-0.18-0.02-0.36-0.05-0.53c0.22,0.04,0.43,0.11,0.63,0.23
		c0.71,0.41,1.11,1.2,1.01,2.02l0.99,0.12C36.73,32.13,36.14,30.95,35.08,30.33z M32.38,30.06c-0.36,0.33-0.85,0.54-1.38,0.54
		s-1.01-0.21-1.38-0.54c0.36-0.34,0.84-0.56,1.38-0.56S32.02,29.71,32.38,30.06z M29,31.5c0-0.16,0.03-0.32,0.06-0.47
		c0.47,0.15,0.89,0.46,1.16,0.92c0.26,0.45,0.33,0.96,0.22,1.46C29.61,33.17,29,32.41,29,31.5z M31.56,33.41
		c-0.11-0.5-0.04-1.01,0.22-1.46c0.26-0.45,0.67-0.77,1.16-0.92C32.97,31.18,33,31.34,33,31.5C33,32.41,32.39,33.17,31.56,33.41z"/>
</g>
</svg>
