<?xml version="1.0" encoding="utf-8"?>
<!-- Generator: Adobe Illustrator 25.1.0, SVG Export Plug-In . SVG Version: 6.00 Build 0)  -->
<svg version="1.1" id="Icon" xmlns="http://www.w3.org/2000/svg" xmlns:xlink="http://www.w3.org/1999/xlink" x="0px" y="0px"
	 viewBox="0 0 62 62" enable-background="new 0 0 62 62" xml:space="preserve">
<rect fill="none" width="62" height="62"/>
<path fill="#FFFFFF" d="M24,16.5 M13,31c0-9.64941,7.85059-17.5,17.5-17.5c5.00977,0,9.79346,2.16943,13.125,5.95215l0.875-0.33057
	V14.5h3v-1h-4v4.36328C40.04199,14.44043,35.37207,12.5,30.5,12.5C20.29883,12.5,12,20.79883,12,31s8.29883,18.5,18.5,18.5
	c4.94189,0,9.5874-1.92432,13.08154-5.41846l0.35352-0.35352l-2.82861-2.82861l-0.35352,0.35352
	C38.01465,43.9917,34.37354,45.5,30.5,45.5C22.50488,45.5,16,38.99512,16,31s6.50488-14.5,14.5-14.5
	c3.7124,0,7.2876,1.44531,9.97559,4H36.5v4h11v-8h-1v7h-9v-2h4.1582l0.37207-0.83398C39.08545,17.38281,34.88281,15.5,30.5,15.5
	C21.95312,15.5,15,22.45312,15,31s6.95312,15.5,15.5,15.5c3.97363,0,7.71826-1.48486,10.60107-4.19189l1.41504,1.41504
	C39.25488,46.80762,35.00781,48.5,30.5,48.5C20.85059,48.5,13,40.64941,13,31z M25.08789,30.45361
	c0-0.54004-0.43213-0.90918-1.07129-0.90918c-0.43213,0-0.93604,0.15283-1.49414,0.46826l-0.26123-0.90967
	c0.63037-0.29688,1.22412-0.43213,1.87256-0.43213c1.29639,0,2.05273,0.63037,2.05273,1.71973
	c0,0.77441-0.31543,1.37744-1.26074,2.40381c-0.42285,0.4502-0.75586,0.79199-1.33203,1.32324h2.6377V35h-4.07812v-0.86426
	C24.39502,32.07422,25.08789,31.20996,25.08789,30.45361z M30.84814,35v-1.57568h0.8374v-0.82812h-0.8374v-3.82617h-1.25146
	l-2.5293,3.74512v0.90918h2.72754V35H30.84814z M28.08447,32.59619l1.72852-2.62891v2.62891H28.08447z M32.28711,35.21582
	l1.62012-6.57178h0.96338l-1.62012,6.57178H32.28711z M36.03125,35l2.57471-5.34766h-2.96191v-0.88232h4.11426v0.84619L37.21045,35
	H36.03125z"/>
</svg>
