<?xml version="1.0" encoding="utf-8"?>
<!-- Generator: Adobe Illustrator 25.1.0, SVG Export Plug-In . SVG Version: 6.00 Build 0)  -->
<svg version="1.1" id="Icon" xmlns="http://www.w3.org/2000/svg" xmlns:xlink="http://www.w3.org/1999/xlink" x="0px" y="0px"
	 viewBox="0 0 62 62" enable-background="new 0 0 62 62" xml:space="preserve">
<rect fill="none" width="62" height="62"/>
<path fill="#FFFFFF" d="M34.74902,31.90818L31,38.93724l-3.45752-6.48315l0.74731-2.24292
	c0.823,0.50171,1.73779,0.78882,2.71021,0.78882c2.78711,0,5.26074-2.36133,6.15479-5.87695l-0.96875-0.24609
	C35.40625,27.94139,33.32227,29.99998,31,29.99998c-2.8772,0-5.23975-3.10083-5.47656-7.0332l0.90576-3.62402
	c0.64209-0.30273,2.93311-1.22168,6.07568-0.66211l0.31055,0.05566l1.23096-1.7168c1.10107,1.26562,2.16382,3.00684,2.44946,5.98047
	h1.0481l1.41553-3.30273L39,19.49998c0-3.55273-1.49121-5.87988-3.81641-5.99512c-1.24268-0.98535-2.85791-1.50488-4.68359-1.50488
	c-4.13574,0-7.5,3.36426-7.5,7.5l1.53101,3.64648c0.18945,2.69873,1.29614,5.03711,2.91162,6.44482l-0.83374,2.50049
	l-10.66357,3.04688l2.05957,14.92969l0.99023-0.13672l-1.94043-14.07031l9.69385-2.76953L30.5,40.12547v9.87451h1v-9.875
	l3.75098-7.0332l9.69434,2.76953l-1.94043,14.07031l0.99023,0.13672l2.05957-14.92969L34.74902,31.90818z M30.5,12.99998
	c1.65576,0,3.10059,0.47852,4.17871,1.38281l0.13916,0.11719H35c1.80225,0,2.97363,1.91894,2.99951,4.89844L37.229,21.19627
	c-0.54785-2.49878-1.66748-4.02466-2.7583-5.19629h-0.92407l-1.17896,1.64453c-3.9126-0.60156-6.50586,0.8584-6.61719,0.92188
	l-0.18457,0.10547l-0.69092,2.7666l-0.87402-2.03906C24.05469,15.86131,26.94971,12.99998,30.5,12.99998z"/>
</svg>
