<?xml version="1.0" encoding="utf-8"?>
<!-- Generator: Adobe Illustrator 26.0.1, SVG Export Plug-In . SVG Version: 6.00 Build 0)  -->
<svg version="1.1" xmlns="http://www.w3.org/2000/svg" xmlns:xlink="http://www.w3.org/1999/xlink" x="0px" y="0px"
	 viewBox="0 0 62 62" enable-background="new 0 0 62 62" xml:space="preserve">
<g id="Hintergrund">
	<rect fill="none" width="62" height="62"/>
</g>
<g id="Icon">
	<path fill="#FFFFFF" d="M13,42c0-2.96,0.79-4.74,2.18-4.97C15.53,36.39,16,36,17,36c1.2,0,4,0.58,4,6h-1c0-3.22-1.07-5-3-5
		c-0.63,0-0.79,0.15-1.05,0.71L15.82,38H15.5c-0.91,0-1.5,1.57-1.5,4c0,1.65,1.35,3,3,3c1.06,0,2.02-0.54,2.57-1.46l0.86,0.52
		C19.71,45.26,18.39,46,17,46C14.79,46,13,44.21,13,42z M25.79,16.82l-0.7-1.57v-0.11c0.03-1.97,1.2-3.14,3.13-3.14
		c0.87,0,1.66,0.41,1.96,0.59c0.54,0.05,1.07,0.33,1.41,0.77c0.41,0.52,0.54,1.22,0.36,1.97c0,0-0.29,1.26-0.29,1.27l-0.83,0.28
		l-1.87-1.69c-0.93-0.13-1.52,0.14-1.74,0.27l-0.45,1.13c0.17,1.36,0.92,2.41,1.8,2.41c0.62,0,1.21-0.55,1.56-1.43l0.93,0.36
		c-0.5,1.28-1.45,2.07-2.49,2.07C27.18,20,26.05,18.66,25.79,16.82z M26.09,15.05l0.12,0.26l0.19-0.48l0.1-0.08
		c0.04-0.03,1.03-0.83,2.78-0.52l0.14,0.03l1.45,1.31l0.11-0.46c0.11-0.45,0.05-0.84-0.17-1.12c-0.19-0.24-0.49-0.39-0.78-0.39
		h-0.15l-0.13-0.08c-0.01,0-0.75-0.5-1.52-0.5C27.28,13,26.16,13.36,26.09,15.05z M24.49,26.9l-0.45-4.53l2.82-0.8l1.65,1.65
		l1.65-1.65l2.82,0.8l-0.45,4.53L33.5,27l0.54-5.37l-4.18-1.2l-1.35,1.35l-1.35-1.35l-4.18,1.2L23.5,27L24.49,26.9z M33.97,30
		l-0.2,2.97l1,0.07l0.2-3.03H37v-1H20v1h2.03L23,44.53l1-0.07L23.03,30H33.97z M40,42.5c0-0.33,0.08-0.65,0.24-0.94
		C40.08,41.23,40,40.87,40,40.5c0-1.08,0.7-2.03,1.71-2.37c0.39-0.82,1.33-1.29,2.23-1.08c0.44-0.36,0.99-0.55,1.56-0.55
		c1.02,0,1.91,0.61,2.3,1.53c1.27,0.17,2.2,1.21,2.2,2.47c0,0.64-0.24,1.24-0.67,1.7c0.11,0.25,0.17,0.52,0.17,0.8
		c0,0.91-0.6,1.68-1.45,1.92C47.58,45.59,46.82,46,46,46c-0.44,0-0.87-0.12-1.25-0.34C44.37,45.88,43.94,46,43.5,46
		c-1.08,0-2.03-0.7-2.37-1.71C40.44,43.96,40,43.27,40,42.5z M41.44,41.61l-0.22,0.28C41.12,42.02,41,42.22,41,42.5
		c0,0.43,0.28,0.81,0.7,0.95l0.28,0.09l0.06,0.28C42.18,44.5,42.8,45,43.5,45c0.34,0,0.66-0.12,0.94-0.34l0.31-0.25l0.31,0.25
		c0.71,0.57,1.8,0.34,2.24-0.43l0.12-0.21l0.24-0.04c0.49-0.08,0.84-0.49,0.84-0.98c0-0.21-0.07-0.42-0.21-0.6l-0.3-0.4l0.4-0.3
		c0.39-0.29,0.61-0.72,0.61-1.2c0-0.83-0.67-1.5-1.5-1.5l-0.41,0.02l-0.15-0.39c-0.17-0.67-0.76-1.13-1.45-1.13
		c-0.41,0-0.79,0.16-1.08,0.46l-0.23,0.24l-0.31-0.13c-0.55-0.22-1.15,0.08-1.32,0.62l-0.09,0.28l-0.28,0.06
		C41.5,39.18,41,39.8,41,40.5c0,0.29,0.08,0.57,0.24,0.81L41.44,41.61z M46.94,47l-0.18,0.1c-0.01,0-0.8,0.44-1.76,0.44
		s-1.75-0.43-1.76-0.44L43.06,47l-4.09,1.17L39.2,51l1-0.08l-0.17-2.01l2.92-0.83c0.35,0.16,1.13,0.47,2.05,0.47s1.7-0.3,2.05-0.47
		l2.92,0.83l-0.17,2.01l1,0.08l0.24-2.83L46.94,47z M18.76,47.1c-0.01,0-0.8,0.44-1.76,0.44s-1.75-0.43-1.76-0.44L15.06,47
		l-4.09,1.17L11.2,51l1-0.08l-0.17-2.01l2.92-0.83c0.35,0.16,1.13,0.47,2.05,0.47s1.7-0.3,2.05-0.47l2.92,0.83l-0.17,2.01l1,0.08
		l0.24-2.83L18.94,47L18.76,47.1z M35.85,45.36L36,45.21V39.5c0-2.48-2.02-4.5-4.5-4.5S27,37.02,27,39.5V43c0,0.55-0.45,1-1,1v1
		c1.1,0,2-0.9,2-2v-3.5c0-1.93,1.57-3.5,3.5-3.5s3.5,1.57,3.5,3.5v5.28C34.59,45.11,33.33,46,31.5,46c-1.28,0-2.27-0.43-2.88-0.79
		l-0.51,0.86C28.82,46.49,29.99,47,31.5,47c0.88,0,1.63-0.18,2.26-0.41l2.71,0.77l-0.3,3.55l1,0.09l0.36-4.37l-2.43-0.69
		C35.56,45.64,35.83,45.38,35.85,45.36z M26.99,45.91l-2.52,0.72L24.83,51l1-0.08l-0.3-3.55l1.73-0.49L26.99,45.91z"/>
</g>
</svg>
