<?xml version="1.0" encoding="utf-8"?>
<!-- Generator: Adobe Illustrator 25.1.0, SVG Export Plug-In . SVG Version: 6.00 Build 0)  -->
<svg version="1.1" id="Icon" xmlns="http://www.w3.org/2000/svg" xmlns:xlink="http://www.w3.org/1999/xlink" x="0px" y="0px"
	 viewBox="0 0 62 62" enable-background="new 0 0 62 62" xml:space="preserve">
<rect fill="none" width="62" height="62"/>
<path fill="#FFFFFF" d="M41.5,27.00001l0.37256,0.83301L24.75391,46.97559l-0.80957-0.57617l6.88867-12.39941H21.5l-0.43701-0.74316
	l10-18l0.87402,0.48633l-9.5874,17.25684h9.33301l0.43701,0.74316l-5.12793,9.23047l13.39062-14.97363H33l-0.4082-0.78906
	l7.94141-11.21094H34v-1h7.5l0.4082,0.78906L33.9668,27.00001H41.5z"/>
</svg>
