<?xml version="1.0" encoding="utf-8"?>
<!-- Generator: Adobe Illustrator 25.1.0, SVG Export Plug-In . SVG Version: 6.00 Build 0)  -->
<svg version="1.1" id="Icon" xmlns="http://www.w3.org/2000/svg" xmlns:xlink="http://www.w3.org/1999/xlink" x="0px" y="0px"
	 viewBox="0 0 62 62" enable-background="new 0 0 62 62" xml:space="preserve">
<rect fill="none" width="62" height="62"/>
<path fill="#FFFFFF" d="M47.12109,42.87893l-9.77051-9.771l-0.33789,0.51025c-0.44141,0.66699-0.95557,1.29492-1.52734,1.86719
	c-4.67871,4.67871-12.29199,4.67871-16.9707,0s-4.67871-12.29199,0-16.9707s12.29199-4.67871,16.9707,0
	c3.38379,3.38379,4.43457,8.44727,2.67725,12.89941l0.92969,0.36719c1.9043-4.82275,0.76611-10.30811-2.8999-13.97363
	c-5.06836-5.06836-13.31641-5.06836-18.38477,0c-5.06885,5.06885-5.06885,13.31592,0,18.38477
	c4.33887,4.33838,11.00684,4.9624,16.0166,1.87451l9.05469,9.0542c0.56641,0.56689,1.31982,0.87891,2.12109,0.87891
	s1.55469-0.31201,2.12109-0.87891C47.68799,46.55471,48,45.8013,48,45.00003S47.68799,43.44534,47.12109,42.87893z
	 M46.41406,46.41409c-0.75586,0.75586-2.07227,0.75586-2.82812,0l-8.9165-8.91602c0.53271-0.38965,1.04199-0.82471,1.52295-1.30566
	c0.47461-0.47461,0.91211-0.98486,1.30615-1.52246l8.91553,8.91602C46.79199,43.96389,47,44.46585,47,45.00003
	S46.79199,46.03616,46.41406,46.41409z M33.36377,33.3638C35.06396,31.66409,36,29.40384,36,27.00003
	s-0.93604-4.66406-2.63623-6.36377c-1.69971-1.7002-3.95996-2.63623-6.36377-2.63623s-4.66406,0.93604-6.36377,2.63623
	c-2.95215,2.95166-3.49512,7.49658-1.3208,11.05273l-0.85352,0.52148c-2.41602-3.95166-1.8125-9.00195,1.46729-12.28125
	c1.88867-1.88916,4.3999-2.9292,7.0708-2.9292s5.18213,1.04004,7.0708,2.9292C35.95996,21.8179,37,24.32913,37,27.00003
	s-1.04004,5.18213-2.9292,7.0708c-1.88867,1.88916-4.3999,2.9292-7.0708,2.9292s-5.18213-1.04004-7.0708-2.9292l0.70703-0.70703
	c1.69971,1.7002,3.95996,2.63623,6.36377,2.63623S31.66406,35.06399,33.36377,33.3638z"/>
</svg>
