<?xml version="1.0" encoding="utf-8"?>
<!-- Generator: Adobe Illustrator 25.1.0, SVG Export Plug-In . SVG Version: 6.00 Build 0)  -->
<svg version="1.1" id="Icon" xmlns="http://www.w3.org/2000/svg" xmlns:xlink="http://www.w3.org/1999/xlink" x="0px" y="0px"
	 viewBox="0 0 62 62" enable-background="new 0 0 62 62" xml:space="preserve">
<rect fill="none" width="62" height="62"/>
<path fill="#FFFFFF" d="M40,38.49997h1v4.5H26.5v4H31v1H21v-1h4.5v-4H11v-20h20v1H12v18h28V38.49997z M50,20.99997v6
	c0,5.10937-6.76855,8.39844-8,8.9541c-1.23242-0.55469-8-3.83789-8-8.9541v-8.18262l8-3.76465l8.28711,3.8999l0.42578-0.90527
	L42,13.94723l-9,4.23535v8.81738c0,6.26269,8.44971,9.81445,8.80957,9.9624L42,37.04049l0.19043-0.07812
	C42.55029,36.81442,51,33.26266,51,26.99997v-6H50z M38.85352,25.14645l-0.70703,0.70703L41,28.707l5.35352-5.35352
	l-0.70703-0.70703L41,27.29294L38.85352,25.14645z"/>
</svg>
