<?xml version="1.0" encoding="utf-8"?>
<!-- Generator: Adobe Illustrator 25.1.0, SVG Export Plug-In . SVG Version: 6.00 Build 0)  -->
<svg version="1.1" id="Icon" xmlns="http://www.w3.org/2000/svg" xmlns:xlink="http://www.w3.org/1999/xlink" x="0px" y="0px"
	 viewBox="0 0 62 62" enable-background="new 0 0 62 62" xml:space="preserve">
<rect fill="none" width="62" height="62"/>
<path fill="#FFFFFF" d="M25.81982,32.00001c-2.67334,0-6.56738-0.80615-10.29053-4.5293
	c-6.54346-6.54346-4.04834-13.59717-4.02246-13.66748l0.08008-0.21631l0.21631-0.08008
	c0.07129-0.02539,7.12451-2.521,13.66748,4.02246c5.84033,5.84045,4.4834,12.07263,4.10522,13.39752
	C30.82202,32.44233,31.5,34.32563,31.5,36.31349v0.68652h-1v-0.68652c0-2.00293-0.78027-3.88672-2.19678-5.30322L17.63037,20.33741
	l0.70703-0.70703l10.43262,10.43274c0.41821-1.9021,0.89355-6.92682-4.00635-11.82678
	c-5.45752-5.45801-11.20166-4.20068-12.3916-3.86084c-0.36035,1.21143-1.64258,6.88135,3.86426,12.38818
	c3.56396,3.56445,7.28906,4.26807,9.75684,4.23486l0.01367,1C25.94531,31.99952,25.88281,32.00001,25.81982,32.00001z M22,49.00001
	h6.5v-1H22V49.00001z M39.49463,34.00001l0.01074,1c2.02148-0.02148,5.04004-0.65576,7.93945-3.55518
	c5.13916-5.13965,3.23779-10.521,3.1543-10.74756l-0.08008-0.21631l-0.21631-0.08008
	c-0.22705-0.08398-5.60693-1.98486-10.74756,3.1543c-4.5022,4.50256-3.60107,9.1897-3.25244,10.43506l-3.31299,3.31299
	C31.38428,38.9087,30.5,41.04298,30.5,43.31349v5.68652H40v-1h-8.5v-4.68652c0-2.00293,0.78027-3.88672,2.19678-5.30322
	l10.67285-10.67285l-0.70703-0.70703l-6.52637,6.52631c-0.30298-1.5849-0.48877-5.27918,3.12598-8.89447
	c4.16113-4.15967,8.43896-3.28711,9.46924-2.99365c0.29346,1.03027,1.1665,5.30859-2.99365,9.46924
	C44.07666,33.39894,41.33008,33.98048,39.49463,34.00001z"/>
</svg>
