<?xml version="1.0" encoding="utf-8"?>
<!-- Generator: Adobe Illustrator 26.0.2, SVG Export Plug-In . SVG Version: 6.00 Build 0)  -->
<svg version="1.1" xmlns="http://www.w3.org/2000/svg" xmlns:xlink="http://www.w3.org/1999/xlink" x="0px" y="0px"
	 viewBox="0 0 62 62" enable-background="new 0 0 62 62" xml:space="preserve">
<g id="background">
</g>
<g id="Icon">
	<path fill="#FFFFFF" d="M50.63,31l-8.49,14.7l-0.87-0.5l8.2-14.2l-9.24-16H21.76l-9.24,16l9.24,16h18.76v1H21.19l-9.81-17l9.81-17
		h19.63L50.63,31z M36,44v-1h-8v-4.68l-2.55-3.06l-2.66-8.22c0.75-0.06,1.47,0.29,1.88,0.94l3.41,5.3l0.84-0.54l-3.41-5.3
		c-0.75-1.17-2.2-1.68-3.53-1.24l-0.47,0.16l3.01,9.32L27,38.68V44H36z M38,24.25c0-0.96-0.79-1.75-1.75-1.75
		c-0.27,0-0.52,0.07-0.75,0.18v-1.93c0-0.96-0.79-1.75-1.75-1.75c-0.27,0-0.53,0.07-0.76,0.18c-0.04-0.93-0.8-1.68-1.74-1.68
		s-1.7,0.75-1.74,1.68C29.28,19.07,29.02,19,28.75,19C27.79,19,27,19.79,27,20.75V27h1v-6.25c0-0.41,0.34-0.75,0.75-0.75
		s0.75,0.34,0.75,0.75V29h1v-9.75c0-0.41,0.34-0.75,0.75-0.75S32,18.84,32,19.25V29h1v-8.25c0-0.41,0.34-0.75,0.75-0.75
		s0.75,0.34,0.75,0.75V31h1v-6.75c0-0.41,0.34-0.75,0.75-0.75S37,23.84,37,24.25v10.17l-1.98,6.43l0.96,0.29l2-6.5L38,24.25z"/>
</g>
</svg>
