<?xml version="1.0" encoding="utf-8"?>
<!-- Generator: Adobe Illustrator 26.0.2, SVG Export Plug-In . SVG Version: 6.00 Build 0)  -->
<svg version="1.1" xmlns="http://www.w3.org/2000/svg" xmlns:xlink="http://www.w3.org/1999/xlink" x="0px" y="0px"
	 viewBox="0 0 62 62" enable-background="new 0 0 62 62" xml:space="preserve">
<g id="background">
	<rect fill="none" width="62" height="62"/>
</g>
<g id="Icon">
	<path fill="#FFFFFF" d="M50.98,35.97L44.94,36l-1.52-8.5H42v-1h-1v1h-1.42l-1.96,11H36v-15h1.5v-1H36V19h1.5v-1H36v-1
		c0-1.38-1.12-2.5-2.5-2.5S31,15.62,31,17v11h1V17c0-0.83,0.67-1.5,1.5-1.5S35,16.17,35,17v21.5H21.5V37H17v-3h2v1h1v-2h-4v4h-1.5
		v1.5H12V26h7.5v5H32v5.5h1V30h-3V14.5h-5V30h-4.5v-5H11v14.5h3.5V42l0,0l-1.09,0.82l1.11,3.34l0.95-0.32l-0.89-2.66L18,40.62
		l3.41,2.56l-0.89,2.66l0.95,0.32l1.11-3.34L21.5,42l0,0v-2.5h15.94l-0.36,2H31v1h2V46h1v-3.5h11V37l4.98-0.02L50,46l1,0
		L50.98,35.97z M26,15.5h3V30h-3V15.5z M18,39.38l-2.5,1.88V38h5v3.25L18,39.38z M42,37.77v-5.54l1.03-1.22L44,36.45v3.69L42,37.77z
		 M43.85,41.5H42v-2.18L43.85,41.5z M41,36.59L39.65,35L41,33.41V36.59z M42.58,28.5l0.22,1.23L42,30.68V28.5H42.58z M40.42,28.5H41
		v3.36l-1.5,1.77L40.42,28.5z M39.1,35.89l1.9,2.25v3.36h-2.9L39.1,35.89z"/>
</g>
</svg>
