<?xml version="1.0" encoding="utf-8"?>
<!-- Generator: Adobe Illustrator 26.0.1, SVG Export Plug-In . SVG Version: 6.00 Build 0)  -->
<svg version="1.1" xmlns="http://www.w3.org/2000/svg" xmlns:xlink="http://www.w3.org/1999/xlink" x="0px" y="0px"
	 viewBox="0 0 62 62" enable-background="new 0 0 62 62" xml:space="preserve">
<g id="Hintergrund">
	<rect fill="none" width="62" height="62"/>
</g>
<g id="Icon">
	<path fill="#FFFFFF" d="M26.23,26l-0.26-4.35l3.36-1.12L30,21c0,0.55,0.45,1,1,1s1-0.45,1-1l0.66-0.47l3.36,1.12L35.77,26h-1
		l0.21-3.65l-2.09-0.7C32.62,22.44,31.87,23,31,23s-1.62-0.56-1.89-1.34l-2.09,0.7L27.24,26H26.23z M45.77,40.98l-0.66,0.47
		c0,0.55-0.45,1-1,1s-1-0.45-1-1l-0.66-0.47l-3.36,1.12l0.23,3.85h1l-0.19-3.15l2.09-0.7c0.27,0.78,1.02,1.34,1.89,1.34
		s1.62-0.56,1.89-1.34l2.09,0.7l-0.19,3.15h1l0.23-3.85L45.77,40.98z M44.12,32.45c1.93,0,3.5,1.57,3.5,3.5v2.5
		c0,0.28,0.22,0.5,0.5,0.5v1c-0.83,0-1.5-0.67-1.5-1.5v-1.93c-0.88-0.08-1.67-0.56-2.11-0.9c-0.38,0.31-1.05,0.74-1.99,0.86
		c0.01,1.34,0.74,2.47,1.6,2.47c0.42,0,0.74-0.26,0.93-0.49l0.75,0.66c-0.47,0.53-1.06,0.83-1.69,0.83c-1.22,0-2.2-1.08-2.5-2.57
		v2.57h-1v-4C40.62,34.02,42.19,32.45,44.12,32.45z M44.12,33.45c-1.36,0-2.46,1.09-2.49,2.44l0.42-0.38
		c1.33-0.02,2.03-0.84,2.06-0.88l0.74-0.04c0.01,0.01,0.83,0.78,1.74,0.93C46.37,34.35,45.35,33.45,44.12,33.45z M14.29,36.82
		l-0.7-1.57v-0.11c0.03-1.97,1.2-3.14,3.13-3.14c0.87,0,1.66,0.41,1.96,0.59c0.54,0.05,1.07,0.33,1.41,0.77
		c0.41,0.52,0.54,1.22,0.36,1.97c0,0-0.29,1.26-0.29,1.27l-0.83,0.28l-1.87-1.69c-0.93-0.13-1.52,0.14-1.74,0.27l-0.45,1.13
		c0.17,1.36,0.92,2.41,1.8,2.41c0.62,0,1.21-0.55,1.56-1.43l0.93,0.36c-0.5,1.28-1.45,2.07-2.5,2.07
		C15.68,40,14.55,38.66,14.29,36.82z M14.59,35.05l0.12,0.26l0.19-0.48l0.1-0.08c0.04-0.03,1.03-0.83,2.78-0.52l0.14,0.03l1.45,1.31
		l0.11-0.46c0.11-0.45,0.05-0.84-0.17-1.12c-0.19-0.24-0.49-0.39-0.78-0.39h-0.15l-0.13-0.08c-0.01,0-0.75-0.5-1.52-0.5
		C15.78,33,14.66,33.36,14.59,35.05z M17.74,21.89L18,22.86l3.23-0.87c-1.63,1.58-2.84,3.53-3.54,5.68
		c-0.09,0.27-0.16,0.55-0.24,0.84l0,0l-0.86-3.23l-0.97,0.26l1.29,4.83l4.83-1.29l-0.26-0.97l-3.1,0.83
		c0.08-0.34,0.16-0.66,0.26-0.96c0.67-2.06,1.85-3.91,3.43-5.41l0.83,3.11l0.97-0.26l-1.29-4.83L17.74,21.89z M17,41.79l-1.35-1.35
		l-4.18,1.2l0.38,3.82h1l-0.31-3.09l2.82-0.8L17,43.21l1.65-1.65l2.82,0.8l-0.31,3.09h1l0.38-3.82l-4.18-1.2L17,41.79z M26.98,15.96
		c0-0.48,0.18-0.95,0.51-1.31c-0.01-0.07-0.01-0.13-0.01-0.19c0-1.16,0.99-2.11,2.19-1.99c0.73-0.65,1.92-0.66,2.65,0
		c1.21-0.12,2.2,0.83,2.2,1.99c0,0.06,0,0.12-0.01,0.18c0.33,0.36,0.51,0.83,0.51,1.32c0,1.05-0.82,1.9-1.86,1.98
		c-0.43,0.9-1.23,1.51-2.17,1.51s-1.74-0.61-2.17-1.52C27.79,17.86,26.98,17.01,26.98,15.96z M27.98,15.96
		c0,0.38,0.22,0.7,0.53,0.87c-0.01-0.12-0.03-0.24-0.03-0.37c0-0.32,0.05-0.63,0.14-0.92l0.37-0.07v-0.01
		c0.06,0,0.12-0.02,0.18-0.04l0,0c0.07-0.01,0.13-0.02,0.2-0.04c0.34-0.14,0.59-0.47,0.62-0.86l0.84-0.33
		c0.19,0.17,0.43,0.27,0.68,0.27c0.2,0,0.37-0.07,0.52-0.17l0.57,0.84c-0.31,0.2-0.69,0.32-1.09,0.32c-0.24,0-0.48-0.04-0.71-0.13
		c-0.25,0.52-0.73,0.91-1.29,1.06c0,0.03-0.01,0.05-0.01,0.07c0,1.1,0.68,2,1.51,2c0.7,0,1.28-0.63,1.45-1.49l0.56-0.01l0,0
		c0.11,0,0.21-0.03,0.3-0.06c0.06-0.02,0.11-0.04,0.17-0.07c0.31-0.17,0.53-0.49,0.53-0.87c0-0.29-0.13-0.57-0.37-0.76l-0.17-0.5
		c0.02-0.09,0.03-0.16,0.03-0.23c0-0.55-0.45-1-1.01-1c-0.07,0-0.15,0.01-0.24,0.03l-0.51-0.17c-0.4-0.48-1.14-0.47-1.53,0
		l-0.51,0.17c-0.09-0.02-0.16-0.03-0.23-0.03c-0.55,0-1.01,0.45-1.01,1c0,0.07,0.01,0.15,0.04,0.24l-0.17,0.51
		C28.11,15.41,27.98,15.68,27.98,15.96z M32.42,42.14l2.28,2.28v0.03c-0.35,0.11-0.68,0.2-0.99,0.27c-2.12,0.45-4.31,0.35-6.4-0.27
		l2.28-2.28l-0.71-0.71L25.34,45l3.54,3.54l0.71-0.71l-2.37-2.37c1.25,0.35,2.53,0.54,3.81,0.54c0.97,0,1.93-0.1,2.89-0.3
		c0.27-0.06,0.54-0.13,0.82-0.21l-2.31,2.31l0.71,0.71l3.54-3.54l-3.54-3.54L32.42,42.14z M39.93,22.57
		c0.27,0.25,0.52,0.49,0.74,0.73c1.45,1.61,2.46,3.56,2.97,5.67l-3.11-0.83l-0.26,0.97l4.83,1.29l1.29-4.83l-0.97-0.26l-0.86,3.23
		c-0.56-2.2-1.63-4.23-3.15-5.91c-0.2-0.22-0.41-0.44-0.65-0.66l0.01-0.01L44,22.83l0.26-0.97l-4.83-1.29l-1.29,4.83l0.97,0.26
		L39.93,22.57z"/>
</g>
</svg>
