<?xml version="1.0" encoding="utf-8"?>
<!-- Generator: Adobe Illustrator 25.1.0, SVG Export Plug-In . SVG Version: 6.00 Build 0)  -->
<svg version="1.1" id="Icon" xmlns="http://www.w3.org/2000/svg" xmlns:xlink="http://www.w3.org/1999/xlink" x="0px" y="0px"
	 viewBox="0 0 62 62" enable-background="new 0 0 62 62" xml:space="preserve">
<rect fill="none" width="62" height="62"/>
<path fill="#FFFFFF" d="M16.27832,16.38501l-2.30469,6.22998h1.08936l0.63916-1.78271h2.34082l0.63916,1.78271h1.16162
	l-2.35889-6.22998H16.27832z M15.99951,19.97729l0.52197-1.47656c0.20703-0.57617,0.23438-0.65723,0.35107-1.07129
	c0.14404,0.47705,0.19824,0.64844,0.35107,1.07129l0.52246,1.47656H15.99951z M19.00586,30.03223
	c0-0.60254-0.26074-1.11621-0.70215-1.35938c-0.37793-0.21582-0.77393-0.28809-1.63818-0.28809H15v6.23047h1.86328
	c0.81055,0,1.20654-0.08105,1.56641-0.30664c0.45947-0.29688,0.71143-0.80078,0.71143-1.41309
	c0-0.81055-0.40527-1.28711-1.22461-1.458C18.65479,31.24805,19.00586,30.78906,19.00586,30.03223z M16.07129,29.21387h0.45898
	c0.57617,0,0.80127,0.04492,1.02637,0.18848c0.21582,0.13477,0.34229,0.41406,0.34229,0.76562
	c0,0.32422-0.11719,0.58496-0.3335,0.72852c-0.18896,0.12598-0.46777,0.18066-0.99023,0.18066h-0.50391V29.21387z
	 M18.01562,32.82324c0,0.3877-0.15283,0.68457-0.40479,0.81934c-0.21631,0.11719-0.43262,0.14453-1.02637,0.14453h-0.51318V31.8418
	h0.52197c0.47705,0,0.71143,0.03613,0.94531,0.15332C17.85352,32.14844,18.01562,32.43652,18.01562,32.82324z M15.73828,43.51831
	c0,1.43115,0.74707,2.31348,1.9624,2.31348c0.52246,0,0.87354-0.09912,1.48584-0.41406l0.30566,0.88232
	c-0.69287,0.31494-1.15234,0.41406-1.84521,0.41406c-1.8999,0-3.04297-1.18848-3.04297-3.16895
	c0-1.99854,1.15234-3.25928,2.98877-3.25928c0.64844,0,1.17041,0.11719,1.83643,0.41455l-0.35986,0.85498
	c-0.54004-0.27881-0.9541-0.38721-1.42236-0.38721C16.47656,41.16821,15.73828,42.07788,15.73828,43.51831z M45.2334,36.98193
	L41.99707,37l0.00586,1l2.76367-0.01514l4.58301,5.51465L44.76562,49H12V38h26.73438l5.4165-6.5l-5.4165-6.5H35.5v1h2.76562
	l4.5835,5.5l-4.5835,5.5H12V26h20.23438l5.4165-6.5l-5.4165-6.5H11v37h34.23438l5.41602-6.49951L45.2334,36.98193z M12,14h19.76562
	l4.5835,5.5l-4.5835,5.5H12V14z"/>
</svg>
