<?xml version="1.0" encoding="utf-8"?>
<!-- Generator: Adobe Illustrator 26.0.1, SVG Export Plug-In . SVG Version: 6.00 Build 0)  -->
<svg version="1.1" xmlns="http://www.w3.org/2000/svg" xmlns:xlink="http://www.w3.org/1999/xlink" x="0px" y="0px"
	 viewBox="0 0 62 62" enable-background="new 0 0 62 62" xml:space="preserve">
<g id="Hintergrund">
	<rect fill="none" width="62" height="62"/>
</g>
<g id="Icon">
	<path fill="#FFFFFF" d="M49,28.5v1h-4v-1H49z M13,29.5h4v-1h-4V29.5z M21.45,18.75l-2.83-2.83l-0.71,0.71l2.83,2.83L21.45,18.75z
		 M40.55,18.75l0.71,0.71l2.83-2.83l-0.71-0.71L40.55,18.75z M31.5,11h-1v4h1V11z M43,29c0,4.82-2.87,9.16-7.3,11.05l-0.39-0.92
		C39.37,37.4,42,33.42,42,29c0-6.07-4.93-11-11-11s-11,4.93-11,11c0,4.42,2.63,8.39,6.7,10.12l0.3,0.13v6.25
		c0,0.83,0.67,1.5,1.5,1.5h5c0.83,0,1.5-0.67,1.5-1.5V42h1v3.5c0,1.21-0.86,2.22-2,2.45V48c0,1.65-1.35,3-3,3s-3-1.35-3-3v-0.05
		c-1.14-0.23-2-1.24-2-2.45v-5.59c-4.26-1.96-7-6.2-7-10.91c0-6.62,5.38-12,12-12S43,22.38,43,29z M29,48c0,1.1,0.9,2,2,2s2-0.9,2-2
		H29z"/>
</g>
</svg>
