<?xml version="1.0" encoding="utf-8"?>
<!-- Generator: Adobe Illustrator 25.1.0, SVG Export Plug-In . SVG Version: 6.00 Build 0)  -->
<svg version="1.1" id="Icon" xmlns="http://www.w3.org/2000/svg" xmlns:xlink="http://www.w3.org/1999/xlink" x="0px" y="0px"
	 viewBox="0 0 62 62" enable-background="new 0 0 62 62" xml:space="preserve">
<rect fill="none" width="62" height="62"/>
<path fill="#FFFFFF" d="M15,35h19v1H14V14h26v7h-1v-6H15V35z M18.43408,31.24805l8-14l-0.86816-0.49609l-8,14L18.43408,31.24805z
	 M22.06592,16.75195l-4.5,7.87402l0.86816,0.49609l4.5-7.87402L22.06592,16.75195z M48,31v-8H36v10
	c0,3.13983,2.42505,5.71924,5.5,5.97467V47H38v1h8v-1h-3.5v-8.02533C45.57495,38.71924,48,36.13983,48,33h-1
	c0,2.75684-2.24316,5-5,5s-5-2.24316-5-5v-9h10v7H48z M40,30v-4h-1v4H40z"/>
</svg>
