<?xml version="1.0" encoding="utf-8"?>
<!-- Generator: Adobe Illustrator 26.0.1, SVG Export Plug-In . SVG Version: 6.00 Build 0)  -->
<svg version="1.1" xmlns="http://www.w3.org/2000/svg" xmlns:xlink="http://www.w3.org/1999/xlink" x="0px" y="0px"
	 viewBox="0 0 62 62" enable-background="new 0 0 62 62" xml:space="preserve">
<g id="Hintergrund">
	<rect fill="none" width="62" height="62"/>
</g>
<g id="Ebene_1">
	<path fill="#FFFFFF" d="M26,13v-2h1v2H26z M28,30.5c0.83,0,1.5-0.67,1.5-1.5v-1.5h-1V29c0,0.28-0.22,0.5-0.5,0.5h-3
		c-0.28,0-0.5-0.22-0.5-0.5v-3.37l-0.29-0.13c-1.95-0.9-3.21-2.86-3.21-5c0-3.03,2.47-5.5,5.5-5.5s5.5,2.47,5.5,5.5
		c0,2.14-1.26,4.1-3.21,5l0.42,0.91c2.3-1.06,3.79-3.38,3.79-5.9c0-3.58-2.92-6.5-6.5-6.5S20,16.92,20,20.5
		c0,2.42,1.36,4.65,3.5,5.76V29c0,0.83,0.67,1.5,1.5,1.5H28z M17,21h2v-1h-2V21z M21.55,14.84l-1.41-1.41l-0.71,0.71l1.41,1.41
		L21.55,14.84z M36,20h-2v1h2V20z M28,31.5h-3v1h3V31.5z M33.57,14.14l-0.71-0.71l-1.41,1.41l0.71,0.71L33.57,14.14z M44.57,21.08
		c-0.6,0-1.09,0.15-1.45,0.45c-0.28,0.23-0.62,0.68-0.62,1.47c0,1.79,0.84,5,2.5,5h1.56l-5.48,8.06c-2.02-0.94-5.09-1.27-8.77,1.85
		c-1.42-0.96-3.45-1.41-6.3-1.41v1c4.48,0,6.66,1.06,7.53,3.66l0.95-0.32c-0.31-0.92-0.78-1.67-1.39-2.28
		c4.81-3.97,8.28-1.49,9.56-0.2l0.71-0.71c-0.29-0.29-0.76-0.71-1.4-1.11l5.96-8.75L47.5,27H45c-0.61,0-1.5-2.11-1.5-4
		c0-0.33,0.08-0.56,0.26-0.7c0.17-0.14,0.46-0.22,0.81-0.22c1.94,0,5.43,2.23,5.43,4.42v0.14c0.01,16.29-6.01,20.33-11.05,20.87
		c-2.76,0.29-4.2-0.44-4.21-0.44l-0.68,0.21C34,47.38,32.57,50,27,50v1c4.98,0,7.03-2,7.69-2.88c0.67,0.24,2.14,0.61,4.36,0.38
		C44.5,47.93,51.01,43.67,51,26.64V26.5C51,23.61,47,21.08,44.57,21.08z"/>
</g>
</svg>
