<?xml version="1.0" encoding="utf-8"?>
<!-- Generator: Adobe Illustrator 25.1.0, SVG Export Plug-In . SVG Version: 6.00 Build 0)  -->
<svg version="1.1" id="Icon" xmlns="http://www.w3.org/2000/svg" xmlns:xlink="http://www.w3.org/1999/xlink" x="0px" y="0px"
	 viewBox="0 0 62 62" enable-background="new 0 0 62 62" xml:space="preserve">
<rect fill="none" width="62" height="62"/>
<path fill="#FFFFFF" d="M29.22559,26.68503c-0.69287,0.31494-1.15234,0.41406-1.84521,0.41406
	c-1.8999,0-3.04297-1.18848-3.04297-3.16895c0-1.99854,1.15234-3.25928,2.98877-3.25928c0.64844,0,1.17041,0.11719,1.83643,0.41455
	l-0.35986,0.85498c-0.54004-0.27881-0.95459-0.38721-1.42236-0.38721c-1.17041,0-1.90869,0.90967-1.90869,2.3501
	c0,1.43115,0.74707,2.31348,1.9624,2.31348c0.52246,0,0.87354-0.09912,1.48584-0.41406L29.22559,26.68503z M34.6167,21.6616
	c0.45898,0.59375,0.69336,1.3501,0.69336,2.22363c0,0.99902-0.31543,1.87256-0.90918,2.46631
	c-0.48633,0.50439-1.14355,0.74756-1.98096,0.74756c-0.96338,0-1.68311-0.32422-2.19629-0.99023
	c-0.46826-0.60352-0.69336-1.35059-0.69336-2.25977c0-0.96338,0.33301-1.85449,0.90918-2.43066
	c0.48633-0.50439,1.14355-0.74756,1.98047-0.74756C33.39258,20.67087,34.10352,20.99509,34.6167,21.6616z M30.66455,23.85789
	c0,1.4585,0.66602,2.35889,1.75537,2.35889c1.08057,0,1.75586-0.90039,1.75586-2.33154c0-1.43164-0.67529-2.33203-1.75586-2.33203
	C31.34863,21.5532,30.66455,22.45359,30.66455,23.85789z M35.91162,27.40574c0.36914-0.27002,0.74707-0.58496,1.08936-0.89111
	c0.43213-0.40527,0.61182-0.68408,0.61182-0.95459c0-0.26074-0.22461-0.43213-0.57617-0.43213
	c-0.26074,0-0.52197,0.07227-0.9541,0.28809l-0.16211-0.61182c0.41406-0.18896,0.81055-0.2793,1.20654-0.2793
	c0.80127,0,1.26904,0.36035,1.26904,0.97217c0,0.40527-0.1709,0.72021-0.61182,1.16162
	c-0.2793,0.27002-0.56738,0.53125-0.84619,0.74707h1.48535v0.59424h-2.51172V27.40574z M41.75684,31.64255
	c-1.21533-0.56641-2.55469-0.74268-3.875-0.50977l-11.77148,2.07569c-0.58496,0.10303-1.09473,0.42773-1.43506,0.91406
	c-0.34082,0.48682-0.47168,1.07666-0.36816,1.66162c0.20215,1.14404,1.22998,1.93066,2.3833,1.8291l9.36133-0.81934
	l-0.08691-0.99609l-9.36133,0.81934c-0.62256,0.05225-1.20068-0.37646-1.31201-1.00684
	c-0.05664-0.32178,0.01514-0.64648,0.20264-0.91406s0.46826-0.44629,0.79004-0.50342l11.77148-2.07568
	c1.11816-0.19629,2.25098-0.04736,3.27832,0.43164l7.38232,3.44238l-2.95801,6.34424l-6.10254-2.84521L25.83643,40.6992
	c-0.9292,0.07617-1.83984-0.20508-2.55615-0.80566l-10.10449-8.47901c0.61719-0.68896,1.65674-0.87842,2.48926-0.39648
	l6.54932,3.78125l0.5-0.86621l-6.54932-3.78125c-0.69385-0.3999-1.50195-0.50684-2.27637-0.2998
	c-0.77393,0.20752-1.4209,0.7041-1.82178,1.39795l-0.20947,0.36328l10.78027,9.0459
	c0.91992,0.77246,2.08838,1.14111,3.28564,1.03613l13.55273-1.18555l6.76562,3.15479l3.80371-8.15674L41.75684,31.64255z"/>
</svg>
