<?xml version="1.0" encoding="utf-8"?>
<!-- Generator: Adobe Illustrator 26.0.1, SVG Export Plug-In . SVG Version: 6.00 Build 0)  -->
<svg version="1.1" xmlns="http://www.w3.org/2000/svg" xmlns:xlink="http://www.w3.org/1999/xlink" x="0px" y="0px"
	 viewBox="0 0 62 62" enable-background="new 0 0 62 62" xml:space="preserve">
<g id="Hintergrund">
	<rect fill="none" width="62" height="62"/>
</g>
<g id="Icon">
	<path fill="#FFFFFF" d="M47,42h1v3h-3.12l-9.11-4.55l0.45-0.89L45.12,44H47V42z M49,34.11c-0.21-8.64-7.3-15.61-16-15.61
		c-7.5,0-13.91,5.1-15.59,12.4l0.97,0.22C19.96,24.28,25.97,19.5,33,19.5c8.27,0,15,6.73,15,15v0.39l2,0.5V39l-2.41,0.01L36,37H12
		v-2.08l5.58-0.93l-0.16-0.99L11,34.08V38l24.91-0.01L47.5,40H51v-5.39L49,34.11z M33,22.5v-1c-4.58,0-8.74,2.34-11.12,6.26
		l0.85,0.52C24.94,24.66,28.77,22.5,33,22.5z"/>
</g>
</svg>
