<?xml version="1.0" encoding="utf-8"?>
<!-- Generator: Adobe Illustrator 25.1.0, SVG Export Plug-In . SVG Version: 6.00 Build 0)  -->
<svg version="1.1" id="Icon" xmlns="http://www.w3.org/2000/svg" xmlns:xlink="http://www.w3.org/1999/xlink" x="0px" y="0px"
	 viewBox="0 0 62 62" enable-background="new 0 0 62 62" xml:space="preserve">
<rect fill="none" width="62" height="62"/>
<path fill="#FFFFFF" d="M35,31H15V19h28v3h1v-4h-3v-3H11v14h3v3h21V31z M14,18v10h-2V16h28v2H14z M37,26.5v8.63074
	c-4.01978-0.37769-9,0.4115-9,2.36926v9c0,1.64111,3.52148,2.5,7,2.5s7-0.85889,7-2.5v-2.60425C42.64746,43.95862,43.31274,44,44,44
	c3.47852,0,7-0.85889,7-2.5v-15C51,23.21777,37,23.21777,37,26.5z M41,46.5c0,0.52881-2.27783,1.5-6,1.5s-6-0.97119-6-1.5v-1.65076
	C30.29138,45.60754,32.65332,46,35,46s4.70862-0.39246,6-1.15076V46.5z M41,43.5c0,0.52881-2.27783,1.5-6,1.5s-6-0.97119-6-1.5
	v-1.65076C30.29138,42.60754,32.65332,43,35,43s4.70862-0.39246,6-1.15076V43.5z M41,40.5c0,0.52881-2.27783,1.5-6,1.5
	s-6-0.97119-6-1.5v-1.65076C30.29138,39.60754,32.65332,40,35,40c1.55371,0,3.0708-0.16895,4.27246-0.47607l-0.24707-0.96875
	C37.90186,38.8418,36.47266,39,35,39c-3.72217,0-6-0.97119-6-1.5s2.27783-1.5,6-1.5s6,0.97119,6,1.5V40.5z M50,41.5
	c0,0.52881-2.27783,1.5-6,1.5c-0.68921,0-1.35522-0.04224-2-0.1084v-1.99585C42.64746,40.95862,43.31274,41,44,41
	c2.34668,0,4.70862-0.39246,6-1.15076V41.5z M50,38.5c0,0.52881-2.27783,1.5-6,1.5c-0.68921,0-1.35522-0.04224-2-0.1084v-1.99658
	C42.64771,37.95825,43.31274,38,44,38c2.34668,0,4.70862-0.39246,6-1.15076V38.5z M50,35.5c0,0.52881-2.27783,1.5-6,1.5
	c-0.75806,0-1.49072-0.04688-2.1936-0.12695c-0.50806-0.80518-1.98914-1.34448-3.8064-1.61926v-1.40454
	C39.29138,34.60754,41.65332,35,44,35s4.70862-0.39246,6-1.15076V35.5z M50,32.5c0,0.52881-2.27783,1.5-6,1.5s-6-0.97119-6-1.5
	v-1.65076C39.29138,31.60754,41.65332,32,44,32s4.70862-0.39246,6-1.15076V32.5z M50,29.5c0,0.52881-2.27783,1.5-6,1.5
	s-6-0.97119-6-1.5v-1.64648c2.14844,1.25732,7.25732,1.44043,10.27246,0.67041l-0.24707-0.96875C46.90186,27.8418,45.47266,28,44,28
	c-3.72217,0-6-0.97119-6-1.5s2.27783-1.5,6-1.5s6,0.97119,6,1.5V29.5z"/>
</svg>
