<?xml version="1.0" encoding="utf-8"?>
<!-- Generator: Adobe Illustrator 26.0.1, SVG Export Plug-In . SVG Version: 6.00 Build 0)  -->
<svg version="1.1" xmlns="http://www.w3.org/2000/svg" xmlns:xlink="http://www.w3.org/1999/xlink" x="0px" y="0px"
	 viewBox="0 0 62 62" enable-background="new 0 0 62 62" xml:space="preserve">
<g id="Hintergrund">
	<rect fill="none" width="62" height="62"/>
</g>
<g id="Icon">
	<path fill="#FFFFFF" d="M45.47,48.82l-10.3-26.61l2.21-5.83c0.29-0.77,0.19-1.63-0.28-2.31S35.86,13,35.04,13H30
		c-1.45,0-2.76,0.91-3.27,2.26L25,19.82l0.94,0.35l1.73-4.56C28.03,14.65,28.97,14,30,14h5.03c0.5,0,0.95,0.24,1.23,0.65
		c0.28,0.41,0.35,0.92,0.17,1.38L34.18,22h-10L14.03,48.82l0.94,0.35L15.79,47h8.93l-0.69,1.82l0.94,0.35l4.82-12.74l4.93,12.74
		l0.93-0.36l-5.33-13.78l4.32-11.42l8.47,21.88l-6.11,0v1l6.5,0l1.04,2.68L45.47,48.82z M24.87,23h8.93l-1.89,5h-8.93L24.87,23z
		 M29.64,34h-8.93l1.89-5h8.93L29.64,34z M16.17,46l1.89-5h8.93l-1.89,5H16.17z M27.37,40h-8.93l1.89-5h8.9l0.02,0.04L27.37,40z"/>
</g>
</svg>
