<?xml version="1.0" encoding="utf-8"?>
<!-- Generator: Adobe Illustrator 25.1.0, SVG Export Plug-In . SVG Version: 6.00 Build 0)  -->
<svg version="1.1" id="Icon" xmlns="http://www.w3.org/2000/svg" xmlns:xlink="http://www.w3.org/1999/xlink" x="0px" y="0px"
	 viewBox="0 0 62 62" enable-background="new 0 0 62 62" xml:space="preserve">
<g>
	<rect fill="none" width="62" height="62"/>
</g>
<path fill="#FFFFFF" d="M21.19092,20l-9.5,19H40.5v-1h-6.19092l2.5-5h5.88184l-1.38818,2.77637l0.89453,0.44727L50.30908,20
	H21.19092z M23.30908,32l2.5-5h5.88184l-2.5,5H23.30908z M28.69092,33l-2.5,5h-5.88184l2.5-5H28.69092z M26.30908,26l2.5-5h5.88184
	l-2.5,5H26.30908z M32.80908,27h5.88184l-2.5,5h-5.88184L32.80908,27z M33.30908,26l2.5-5h5.88184l-2.5,5H33.30908z M42.80908,21
	h5.88184l-2.5,5h-5.88184L42.80908,21z M21.80908,21h5.88184l-2.5,5H21.5v1h3.19092l-2.5,5h-5.88184L21.80908,21z M15.80908,33
	h5.88184l-2.5,5h-5.88184L15.80908,33z M33.19092,38h-5.88184l2.5-5h5.88184L33.19092,38z M37.30908,32l2.5-5h5.88184l-2.5,5
	H37.30908z"/>
</svg>
