<?xml version="1.0" encoding="utf-8"?>
<!-- Generator: Adobe Illustrator 25.1.0, SVG Export Plug-In . SVG Version: 6.00 Build 0)  -->
<svg version="1.1" id="Icon" xmlns="http://www.w3.org/2000/svg" xmlns:xlink="http://www.w3.org/1999/xlink" x="0px" y="0px"
	 viewBox="0 0 62 62" enable-background="new 0 0 62 62" xml:space="preserve">
<rect fill="none" width="62" height="62"/>
<path fill="#FFFFFF" d="M51,29H39v-1h11V13H29v11h-1V12h23V29z M46.93799,42.46289l-0.18066,0.09961
	C46.74951,42.56739,45.95264,43,45,43s-1.74951-0.43262-1.75732-0.4375l-0.18213-0.09961l-3.19775,0.91406l0.27441,0.96094
	l2.81445-0.80371C43.30176,43.69532,44.0835,44,45,44s1.69824-0.30469,2.04834-0.46582l2.91943,0.83398l-0.46582,5.58984
	l0.99609,0.08398l0.53418-6.41016L46.93799,42.46289z M27.98682,42.91309l-2.51904,0.71875l0.53418,6.41016l0.99609-0.08398
	l-0.46582-5.58984l1.729-0.49414L27.98682,42.91309z M14,50h1V40h5v-1h-6V50z M18,50h1v-7h-1V50z M39.69092,25.34766l-0.86621,0.5
	l-1.25-2.16504l-6.88623,3.97656l-9.54004-2.60059L19,27.20704l-2.14832-2.14832l-4.84045,1.32019L12.5,43.48536l-1,0.0293
	L10.98877,25.6211l5.6217-1.53308l0.36633-1.099c-0.64331-0.71021-1.12207-1.74939-1.3396-2.99976L14.5,18.14161V18
	c0-2.16797,1.89014-4,4.12793-4c0.95508,0,1.89355,0.28711,2.55225,0.77539c0.62109,0.04004,1.12891,0.29297,1.47559,0.73633
	c0.47803,0.61133,0.59521,1.53711,0.32959,2.6084l-0.01245,0.0376l0.00122,0.00049l-0.5,1.5l-0.96484-0.0625
	c-0.104-0.53223-0.35791-1.4248-0.66406-1.95898l-0.76953,0.38477l-0.16357-0.0293
	c-1.45264-0.25977-2.29346,0.23242-2.51953,0.39062l-0.77588,1.42188C16.9386,21.64014,17.91699,23,19,23
	c0.71582,0,1.42969-0.61035,1.91016-1.63184l0.90527,0.42578C21.15576,23.19629,20.12988,24,19,24
	c-0.422,0-0.82349-0.12036-1.19702-0.32837l-0.23108,0.69324L19,25.79297l1.85156-1.85156l9.69824,2.64355l7.39111-4.26758
	L39.69092,25.34766z M15.50342,17.86426l0.54785,0.88965l0.62109-1.07617c0.04785-0.04199,1.1709-1.00684,3.24854-0.69727
	l0.85547-0.42773l0.58691,0.10352c0.27295,0.28809,0.49414,0.72192,0.66675,1.16089
	c0.16846-0.70654,0.11499-1.33508-0.16187-1.68921c-0.18604-0.2373-0.47803-0.3584-0.86816-0.3584h-0.18213l-0.13916-0.11719
	C20.19189,15.24414,19.42529,15,18.62793,15C16.97998,15,15.58057,16.29786,15.50342,17.86426z M31.63379,30l5.45898-3.15234
	l-0.5-0.86523L31.36621,29h-6.65674l-0.67676,10H22v11h1V40h1.96729l0.67676-10H31.63379z M50,36
	c0,0.63965-0.24072,1.23828-0.67139,1.69727C49.44141,37.94922,49.5,38.22168,49.5,38.5c0,0.90527-0.59814,1.67773-1.45264,1.91895
	C47.58252,41.09082,46.81738,41.5,46,41.5c-0.44287,0-0.86865-0.11719-1.25-0.34277C44.36865,41.38282,43.94287,41.5,43.5,41.5
	c-1.07617,0-2.03174-0.70312-2.36865-1.70605C40.44434,39.46485,40,38.77442,40,38c0-0.33105,0.08203-0.64941,0.23926-0.93945
	C40.08203,36.72852,40,36.36719,40,36c0-1.0752,0.70264-2.03125,1.70557-2.36816c0.39209-0.81836,1.33105-1.29102,2.2334-1.08203
	C44.38086,32.19336,44.9248,32,45.5,32c1.01514,0,1.91406,0.61426,2.29834,1.53223C49.07178,33.70411,50,34.7461,50,36z M49,36
	c0-0.82715-0.67285-1.5-1.5-1.5l-0.40527,0.0166l-0.14795-0.38672C46.77686,33.46485,46.18213,33,45.5,33
	c-0.4082,0-0.79004,0.16309-1.07617,0.45898l-0.23389,0.24219l-0.31201-0.12598c-0.55029-0.2207-1.15283,0.08203-1.32422,0.62305
	l-0.08789,0.27637l-0.2832,0.06055C41.49756,34.6836,41,35.29883,41,36c0,0.28516,0.0835,0.56543,0.2417,0.81055l0.19336,0.2998
	l-0.21973,0.28027C41.11719,37.51563,41,37.72364,41,38c0,0.43262,0.28076,0.81348,0.69922,0.94629l0.27539,0.08789l0.06104,0.2832
	C42.18311,40.00293,42.79883,40.5,43.5,40.5c0.3374,0,0.66113-0.11719,0.93555-0.33887L44.75,39.90723l0.31445,0.25391
	c0.7085,0.57227,1.79834,0.34277,2.23535-0.43066l0.11865-0.20996l0.23828-0.03809C48.14551,39.40528,48.5,38.99121,48.5,38.5
	c0-0.21387-0.07178-0.42188-0.20703-0.60059l-0.3042-0.40137l0.40381-0.30078C48.77832,36.90918,49,36.47266,49,36z
	 M36.85303,42.35645L37,42.20704V36.5c0-2.48145-2.01855-4.5-4.5-4.5S28,34.01856,28,36.5V40c0,0.55176-0.44873,1-1,1v1
	c1.10303,0,2-0.89746,2-2v-3.5c0-1.92969,1.57031-3.5,3.5-3.5s3.5,1.57031,3.5,3.5v5.27637C35.58643,42.11426,34.32812,43,32.5,43
	c-1.28076,0-2.27344-0.43066-2.88037-0.79102l-0.51074,0.85938C29.82324,43.49317,30.99219,44,32.5,44
	c0.87756,0,1.62695-0.17603,2.25842-0.40625l2.70935,0.77441l-0.46582,5.58984l0.99609,0.08398l0.53418-6.41016l-2.43262-0.69446
	C36.56274,42.63697,36.82715,42.38257,36.85303,42.35645z"/>
</svg>
