<?xml version="1.0" encoding="utf-8"?>
<!-- Generator: Adobe Illustrator 26.0.1, SVG Export Plug-In . SVG Version: 6.00 Build 0)  -->
<svg version="1.1" xmlns="http://www.w3.org/2000/svg" xmlns:xlink="http://www.w3.org/1999/xlink" x="0px" y="0px"
	 viewBox="0 0 62 62" enable-background="new 0 0 62 62" xml:space="preserve">
<g id="Hintergrund">
	<rect fill="none" width="62" height="62"/>
</g>
<g id="Icon">
	<path fill="#FFFFFF" d="M46.41,25.79L42.72,31H46l0.37,0.83l-8.5,9.5l-0.83-0.54L39.72,35H35.5v-1h5l0.45,0.71l-1.6,3.47L44.88,32
		h-3.13l-0.41-0.79L45.03,26h-3.74l-3.47,6.24l-0.87-0.49L40.71,25H46L46.41,25.79z M35.53,22.59c0.16-0.51,0.1-1.05-0.15-1.52
		c-0.25-0.47-0.67-0.82-1.18-0.97c-1.05-0.32-2.17,0.27-2.5,1.33L31,23.73V16c0-1.1-0.9-2-2-2c-0.37,0-0.7,0.11-1,0.28V14
		c0-1.1-0.9-2-2-2s-2,0.9-2,2v0.28C23.7,14.11,23.37,14,23,14c-1.1,0-2,0.9-2,2v1.28C20.7,17.11,20.37,17,20,17c-1.1,0-2,0.9-2,2v10
		l1.99,6.54L17.92,50H30.5v-1H19.08l1.93-13.54L19,28.92V19c0-0.55,0.45-1,1-1s1,0.45,1,1v6h1v-9c0-0.55,0.45-1,1-1s1,0.45,1,1v8h1
		V14c0-0.55,0.45-1,1-1s1,0.45,1,1v10h1v-8c0-0.55,0.45-1,1-1s1,0.45,1,1v11.08l0.98,0.15l1.68-5.51c0.16-0.53,0.72-0.82,1.25-0.66
		c0.53,0.16,0.83,0.72,0.66,1.25l-4.07,13.3l2,13.97l0.99-0.14l-1.96-13.75L35.53,22.59z"/>
</g>
</svg>
